%!PS-Adobe-2.0 EPSF-2.0
%%BoundingBox: 42 316 350 692
%%HiResBoundingBox: 42.500000 316.000000 350.000000 691.500000
%Produced by poppler pdftops version: 0.24.5 (http://poppler.freedesktop.org)
%%Creator: Draw
%%LanguageLevel: 2
%%DocumentMedia: 612x792 612 792 0 () ()
%%EndComments
% EPSF created by ps2eps 1.68
%%BeginProlog
save
countdictstack
mark
newpath
/showpage {} def
/setpagedevice {pop} def
%%EndProlog
%%Page 1 1
%%BeginProlog
%%BeginResource: procset xpdf 3.00 0
%%Copyright: Copyright 1996-2011 Glyph & Cog, LLC
/xpdf 75 dict def xpdf begin
% PDF special state
/pdfDictSize 15 def
/pdfSetup {
  /setpagedevice where {
    pop 2 dict begin
      /Policies 1 dict dup begin /PageSize 6 def end def
      { /Duplex true def } if
    currentdict end setpagedevice
  } {
    pop
  } ifelse
} def
/pdfSetupPaper {
  2 array astore
  /setpagedevice where {
    pop 2 dict begin
      /PageSize exch def
      /ImagingBBox null def
    currentdict end setpagedevice
  } {
    pop
  } ifelse
} def
/pdfStartPage {
  pdfDictSize dict begin
  /pdfFillCS [] def
  /pdfFillXform {} def
  /pdfStrokeCS [] def
  /pdfStrokeXform {} def
  /pdfFill [0] def
  /pdfStroke [0] def
  /pdfFillOP false def
  /pdfStrokeOP false def
  /pdfLastFill false def
  /pdfLastStroke false def
  /pdfTextMat [1 0 0 1 0 0] def
  /pdfFontSize 0 def
  /pdfCharSpacing 0 def
  /pdfTextRender 0 def
  /pdfPatternCS false def
  /pdfTextRise 0 def
  /pdfWordSpacing 0 def
  /pdfHorizScaling 1 def
  /pdfTextClipPath [] def
} def
/pdfEndPage { end } def
% PDF color state
/cs { /pdfFillXform exch def dup /pdfFillCS exch def
      setcolorspace } def
/CS { /pdfStrokeXform exch def dup /pdfStrokeCS exch def
      setcolorspace } def
/sc { pdfLastFill not { pdfFillCS setcolorspace } if
      dup /pdfFill exch def aload pop pdfFillXform setcolor
     /pdfLastFill true def /pdfLastStroke false def } def
/SC { pdfLastStroke not { pdfStrokeCS setcolorspace } if
      dup /pdfStroke exch def aload pop pdfStrokeXform setcolor
     /pdfLastStroke true def /pdfLastFill false def } def
/op { /pdfFillOP exch def
      pdfLastFill { pdfFillOP setoverprint } if } def
/OP { /pdfStrokeOP exch def
      pdfLastStroke { pdfStrokeOP setoverprint } if } def
/fCol {
  pdfLastFill not {
    pdfFillCS setcolorspace
    pdfFill aload pop pdfFillXform setcolor
    pdfFillOP setoverprint
    /pdfLastFill true def /pdfLastStroke false def
  } if
} def
/sCol {
  pdfLastStroke not {
    pdfStrokeCS setcolorspace
    pdfStroke aload pop pdfStrokeXform setcolor
    pdfStrokeOP setoverprint
    /pdfLastStroke true def /pdfLastFill false def
  } if
} def
% build a font
/pdfMakeFont {
  4 3 roll findfont
  4 2 roll matrix scale makefont
  dup length dict begin
    { 1 index /FID ne { def } { pop pop } ifelse } forall
    /Encoding exch def
    currentdict
  end
  definefont pop
} def
/pdfMakeFont16 {
  exch findfont
  dup length dict begin
    { 1 index /FID ne { def } { pop pop } ifelse } forall
    /WMode exch def
    currentdict
  end
  definefont pop
} def
% graphics state operators
/q { gsave pdfDictSize dict begin } def
/Q {
  end grestore
  /pdfLastFill where {
    pop
    pdfLastFill {
      pdfFillOP setoverprint
    } {
      pdfStrokeOP setoverprint
    } ifelse
  } if
} def
/cm { concat } def
/d { setdash } def
/i { setflat } def
/j { setlinejoin } def
/J { setlinecap } def
/M { setmiterlimit } def
/w { setlinewidth } def
% path segment operators
/m { moveto } def
/l { lineto } def
/c { curveto } def
/re { 4 2 roll moveto 1 index 0 rlineto 0 exch rlineto
      neg 0 rlineto closepath } def
/h { closepath } def
% path painting operators
/S { sCol stroke } def
/Sf { fCol stroke } def
/f { fCol fill } def
/f* { fCol eofill } def
% clipping operators
/W { clip newpath } def
/W* { eoclip newpath } def
/Ws { strokepath clip newpath } def
% text state operators
/Tc { /pdfCharSpacing exch def } def
/Tf { dup /pdfFontSize exch def
      dup pdfHorizScaling mul exch matrix scale
      pdfTextMat matrix concatmatrix dup 4 0 put dup 5 0 put
      exch findfont exch makefont setfont } def
/Tr { /pdfTextRender exch def } def
/Tp { /pdfPatternCS exch def } def
/Ts { /pdfTextRise exch def } def
/Tw { /pdfWordSpacing exch def } def
/Tz { /pdfHorizScaling exch def } def
% text positioning operators
/Td { pdfTextMat transform moveto } def
/Tm { /pdfTextMat exch def } def
% text string operators
/xyshow where {
  pop
  /xyshow2 {
    dup length array
    0 2 2 index length 1 sub {
      2 index 1 index 2 copy get 3 1 roll 1 add get
      pdfTextMat dtransform
      4 2 roll 2 copy 6 5 roll put 1 add 3 1 roll dup 4 2 roll put
    } for
    exch pop
    xyshow
  } def
}{
  /xyshow2 {
    currentfont /FontType get 0 eq {
      0 2 3 index length 1 sub {
        currentpoint 4 index 3 index 2 getinterval show moveto
        2 copy get 2 index 3 2 roll 1 add get
        pdfTextMat dtransform rmoveto
      } for
    } {
      0 1 3 index length 1 sub {
        currentpoint 4 index 3 index 1 getinterval show moveto
        2 copy 2 mul get 2 index 3 2 roll 2 mul 1 add get
        pdfTextMat dtransform rmoveto
      } for
    } ifelse
    pop pop
  } def
} ifelse
/cshow where {
  pop
  /xycp {
    0 3 2 roll
    {
      pop pop currentpoint 3 2 roll
      1 string dup 0 4 3 roll put false charpath moveto
      2 copy get 2 index 2 index 1 add get
      pdfTextMat dtransform rmoveto
      2 add
    } exch cshow
    pop pop
  } def
}{
  /xycp {
    currentfont /FontType get 0 eq {
      0 2 3 index length 1 sub {
        currentpoint 4 index 3 index 2 getinterval false charpath moveto
        2 copy get 2 index 3 2 roll 1 add get
        pdfTextMat dtransform rmoveto
      } for
    } {
      0 1 3 index length 1 sub {
        currentpoint 4 index 3 index 1 getinterval false charpath moveto
        2 copy 2 mul get 2 index 3 2 roll 2 mul 1 add get
        pdfTextMat dtransform rmoveto
      } for
    } ifelse
    pop pop
  } def
} ifelse
/Tj {
  fCol
  0 pdfTextRise pdfTextMat dtransform rmoveto
  currentpoint 4 2 roll
  pdfTextRender 1 and 0 eq {
    2 copy xyshow2
  } if
  pdfTextRender 3 and dup 1 eq exch 2 eq or {
    3 index 3 index moveto
    2 copy
    currentfont /FontType get 3 eq { fCol } { sCol } ifelse
    xycp currentpoint stroke moveto
  } if
  pdfTextRender 4 and 0 ne {
    4 2 roll moveto xycp
    /pdfTextClipPath [ pdfTextClipPath aload pop
      {/moveto cvx}
      {/lineto cvx}
      {/curveto cvx}
      {/closepath cvx}
    pathforall ] def
    currentpoint newpath moveto
  } {
    pop pop pop pop
  } ifelse
  0 pdfTextRise neg pdfTextMat dtransform rmoveto
} def
/TJm { 0.001 mul pdfFontSize mul pdfHorizScaling mul neg 0
       pdfTextMat dtransform rmoveto } def
/TJmV { 0.001 mul pdfFontSize mul neg 0 exch
        pdfTextMat dtransform rmoveto } def
/Tclip { pdfTextClipPath cvx exec clip newpath
         /pdfTextClipPath [] def } def
/Tclip* { pdfTextClipPath cvx exec eoclip newpath
         /pdfTextClipPath [] def } def
% Level 2/3 image operators
/pdfImBuf 100 string def
/pdfImStr {
  2 copy exch length lt {
    2 copy get exch 1 add exch
  } {
    ()
  } ifelse
} def
/skipEOD {
  { currentfile pdfImBuf readline
    not { pop exit } if
    (%-EOD-) eq { exit } if } loop
} def
/pdfIm { image skipEOD } def
/pdfImM { fCol imagemask skipEOD } def
/pr { 2 index 2 index 3 2 roll putinterval 4 add } def
/pdfImClip {
  gsave
  0 2 4 index length 1 sub {
    dup 4 index exch 2 copy
    get 5 index div put
    1 add 3 index exch 2 copy
    get 3 index div put
  } for
  pop pop rectclip
} def
/pdfImClipEnd { grestore } def
% shading operators
/colordelta {
  false 0 1 3 index length 1 sub {
    dup 4 index exch get 3 index 3 2 roll get sub abs 0.004 gt {
      pop true
    } if
  } for
  exch pop exch pop
} def
/funcCol { func n array astore } def
/funcSH {
  dup 0 eq {
    true
  } {
    dup 6 eq {
      false
    } {
      4 index 4 index funcCol dup
      6 index 4 index funcCol dup
      3 1 roll colordelta 3 1 roll
      5 index 5 index funcCol dup
      3 1 roll colordelta 3 1 roll
      6 index 8 index funcCol dup
      3 1 roll colordelta 3 1 roll
      colordelta or or or
    } ifelse
  } ifelse
  {
    1 add
    4 index 3 index add 0.5 mul exch 4 index 3 index add 0.5 mul exch
    6 index 6 index 4 index 4 index 4 index funcSH
    2 index 6 index 6 index 4 index 4 index funcSH
    6 index 2 index 4 index 6 index 4 index funcSH
    5 3 roll 3 2 roll funcSH pop pop
  } {
    pop 3 index 2 index add 0.5 mul 3 index  2 index add 0.5 mul
    funcCol sc
    dup 4 index exch mat transform m
    3 index 3 index mat transform l
    1 index 3 index mat transform l
    mat transform l pop pop h f*
  } ifelse
} def
/axialCol {
  dup 0 lt {
    pop t0
  } {
    dup 1 gt {
      pop t1
    } {
      dt mul t0 add
    } ifelse
  } ifelse
  func n array astore
} def
/axialSH {
  dup 0 eq {
    true
  } {
    dup 8 eq {
      false
    } {
      2 index axialCol 2 index axialCol colordelta
    } ifelse
  } ifelse
  {
    1 add 3 1 roll 2 copy add 0.5 mul
    dup 4 3 roll exch 4 index axialSH
    exch 3 2 roll axialSH
  } {
    pop 2 copy add 0.5 mul
    axialCol sc
    exch dup dx mul x0 add exch dy mul y0 add
    3 2 roll dup dx mul x0 add exch dy mul y0 add
    dx abs dy abs ge {
      2 copy yMin sub dy mul dx div add yMin m
      yMax sub dy mul dx div add yMax l
      2 copy yMax sub dy mul dx div add yMax l
      yMin sub dy mul dx div add yMin l
      h f*
    } {
      exch 2 copy xMin sub dx mul dy div add xMin exch m
      xMax sub dx mul dy div add xMax exch l
      exch 2 copy xMax sub dx mul dy div add xMax exch l
      xMin sub dx mul dy div add xMin exch l
      h f*
    } ifelse
  } ifelse
} def
/radialCol {
  dup t0 lt {
    pop t0
  } {
    dup t1 gt {
      pop t1
    } if
  } ifelse
  func n array astore
} def
/radialSH {
  dup 0 eq {
    true
  } {
    dup 8 eq {
      false
    } {
      2 index dt mul t0 add radialCol
      2 index dt mul t0 add radialCol colordelta
    } ifelse
  } ifelse
  {
    1 add 3 1 roll 2 copy add 0.5 mul
    dup 4 3 roll exch 4 index radialSH
    exch 3 2 roll radialSH
  } {
    pop 2 copy add 0.5 mul dt mul t0 add
    radialCol sc
    encl {
      exch dup dx mul x0 add exch dup dy mul y0 add exch dr mul r0 add
      0 360 arc h
      dup dx mul x0 add exch dup dy mul y0 add exch dr mul r0 add
      360 0 arcn h f
    } {
      2 copy
      dup dx mul x0 add exch dup dy mul y0 add exch dr mul r0 add
      a1 a2 arcn
      dup dx mul x0 add exch dup dy mul y0 add exch dr mul r0 add
      a2 a1 arcn h
      dup dx mul x0 add exch dup dy mul y0 add exch dr mul r0 add
      a1 a2 arc
      dup dx mul x0 add exch dup dy mul y0 add exch dr mul r0 add
      a2 a1 arc h f
    } ifelse
  } ifelse
} def
end
%%EndResource
%%EndProlog
%%BeginSetup
xpdf begin
false pdfSetup
%%EndSetup
%%Page: 1 1
%%PageMedia: 612x792
%%PageBoundingBox: 0 0 612 792
%%BeginPageSetup
%%PageOrientation: Portrait
612 792 pdfSetupPaper
pdfStartPage
0 0 612 792 re W
%%EndPageSetup
[] 0 d
1 i
0 j
0 J
10 M
1 w
/DeviceGray {} cs
[0] sc
/DeviceGray {} CS
[0] SC
false op
false OP
{} settransfer
q
0.1 w
q
0 0 612 792 re
W*
/DeviceRGB {} cs
[1 1 1] sc
196.2 316.8 m
43.2 316.8 l
43.2 691 l
349.2 691 l
349.2 316.8 l
196.2 316.8 l
h
f*
/DeviceRGB {} CS
[0 0 0] SC
q
1.49989 w
2 J
0 j
7.66129 M
196.2 316.8 m
43.2 316.8 l
43.2 691 l
349.2 691 l
349.2 316.8 l
196.2 316.8 l
h
S
Q
/DeviceRGB {} cs
[0.2314 0.5059 0.1843] sc
264.2 657 m
267.3 657 269.8 654.5 269.8 651.3 c
269.8 648.2 267.3 645.7 264.2 645.7 c
261 645.7 258.5 648.2 258.5 651.3 c
258.5 654.5 261 657 264.2 657 c
h
f*
/DeviceRGB {} CS
[0 0 0] SC
q
1.49989 w
2 J
0 j
7.66129 M
264.2 657 m
267.3 657 269.8 654.5 269.8 651.3 c
269.8 648.2 267.3 645.7 264.2 645.7 c
261 645.7 258.5 648.2 258.5 651.3 c
258.5 654.5 261 657 264.2 657 c
h
S
Q
281.1 639.9 m
284.3 639.9 286.8 637.5 286.8 634.3 c
286.8 631.1 284.3 628.7 281.1 628.7 c
278 628.7 275.5 631.1 275.5 634.3 c
275.5 637.5 278 639.9 281.1 639.9 c
h
f*
/DeviceRGB {} CS
[0 0 0] SC
q
1.49989 w
2 J
0 j
7.66129 M
281.1 639.9 m
284.3 639.9 286.8 637.5 286.8 634.3 c
286.8 631.1 284.3 628.7 281.1 628.7 c
278 628.7 275.5 631.1 275.5 634.3 c
275.5 637.5 278 639.9 281.1 639.9 c
h
S
Q
298.3 622.8 m
301.5 622.8 303.9 620.4 303.9 617.2 c
303.9 614 301.5 611.6 298.3 611.6 c
295.1 611.6 292.7 614 292.7 617.2 c
292.7 620.4 295.1 622.8 298.3 622.8 c
h
f*
/DeviceRGB {} CS
[0 0 0] SC
q
1.49989 w
2 J
0 j
7.66129 M
298.3 622.8 m
301.5 622.8 303.9 620.4 303.9 617.2 c
303.9 614 301.5 611.6 298.3 611.6 c
295.1 611.6 292.7 614 292.7 617.2 c
292.7 620.4 295.1 622.8 298.3 622.8 c
h
S
Q
286.9 668.2 m
290.1 668.2 292.5 665.8 292.5 662.6 c
292.5 659.4 290.1 657 286.9 657 c
283.7 657 281.3 659.4 281.3 662.6 c
281.3 665.8 283.7 668.2 286.9 668.2 c
h
f*
/DeviceRGB {} CS
[0 0 0] SC
q
1.49989 w
2 J
0 j
7.66129 M
286.9 668.2 m
290.1 668.2 292.5 665.8 292.5 662.6 c
292.5 659.4 290.1 657 286.9 657 c
283.7 657 281.3 659.4 281.3 662.6 c
281.3 665.8 283.7 668.2 286.9 668.2 c
h
S
Q
247.2 588.8 m
250.3 588.8 252.8 586.4 252.8 583.2 c
252.8 580.1 250.3 577.6 247.2 577.6 c
244 577.6 241.5 580.1 241.5 583.2 c
241.5 586.4 244 588.8 247.2 588.8 c
h
f*
/DeviceRGB {} CS
[0 0 0] SC
q
1.49989 w
2 J
0 j
7.66129 M
247.2 588.8 m
250.3 588.8 252.8 586.4 252.8 583.2 c
252.8 580.1 250.3 577.6 247.2 577.6 c
244 577.6 241.5 580.1 241.5 583.2 c
241.5 586.4 244 588.8 247.2 588.8 c
h
S
Q
281.1 572 m
284.3 572 286.8 569.5 286.8 566.4 c
286.8 563.2 284.3 560.7 281.1 560.7 c
278 560.7 275.5 563.2 275.5 566.4 c
275.5 569.5 278 572 281.1 572 c
h
f*
/DeviceRGB {} CS
[0 0 0] SC
q
1.49989 w
2 J
0 j
7.66129 M
281.1 572 m
284.3 572 286.8 569.5 286.8 566.4 c
286.8 563.2 284.3 560.7 281.1 560.7 c
278 560.7 275.5 563.2 275.5 566.4 c
275.5 569.5 278 572 281.1 572 c
h
S
Q
298.3 554.8 m
301.5 554.8 303.9 552.4 303.9 549.2 c
303.9 546 301.5 543.6 298.3 543.6 c
295.1 543.6 292.7 546 292.7 549.2 c
292.7 552.4 295.1 554.8 298.3 554.8 c
h
f*
/DeviceRGB {} CS
[0 0 0] SC
q
1.49989 w
2 J
0 j
7.66129 M
298.3 554.8 m
301.5 554.8 303.9 552.4 303.9 549.2 c
303.9 546 301.5 543.6 298.3 543.6 c
295.1 543.6 292.7 546 292.7 549.2 c
292.7 552.4 295.1 554.8 298.3 554.8 c
h
S
Q
286.9 600.2 m
290.1 600.2 292.5 597.8 292.5 594.6 c
292.5 591.4 290.1 589 286.9 589 c
283.7 589 281.3 591.4 281.3 594.6 c
281.3 597.8 283.7 600.2 286.9 600.2 c
h
f*
/DeviceRGB {} CS
[0 0 0] SC
q
1.49989 w
2 J
0 j
7.66129 M
286.9 600.2 m
290.1 600.2 292.5 597.8 292.5 594.6 c
292.5 591.4 290.1 589 286.9 589 c
283.7 589 281.3 591.4 281.3 594.6 c
281.3 597.8 283.7 600.2 286.9 600.2 c
h
S
Q
281.1 538 m
284.3 538 286.8 535.5 286.8 532.3 c
286.8 529.2 284.3 526.7 281.1 526.7 c
278 526.7 275.5 529.2 275.5 532.3 c
275.5 535.5 278 538 281.1 538 c
h
f*
/DeviceRGB {} CS
[0 0 0] SC
q
1.49989 w
2 J
0 j
7.66129 M
281.1 538 m
284.3 538 286.8 535.5 286.8 532.3 c
286.8 529.2 284.3 526.7 281.1 526.7 c
278 526.7 275.5 529.2 275.5 532.3 c
275.5 535.5 278 538 281.1 538 c
h
S
Q
298.1 520.9 m
301.3 520.9 303.8 518.5 303.8 515.3 c
303.8 512.1 301.3 509.7 298.1 509.7 c
295 509.7 292.5 512.1 292.5 515.3 c
292.5 518.5 295 520.9 298.1 520.9 c
h
f*
/DeviceRGB {} CS
[0 0 0] SC
q
1.49989 w
2 J
0 j
7.66129 M
298.1 520.9 m
301.3 520.9 303.8 518.5 303.8 515.3 c
303.8 512.1 301.3 509.7 298.1 509.7 c
295 509.7 292.5 512.1 292.5 515.3 c
292.5 518.5 295 520.9 298.1 520.9 c
h
S
Q
315.3 503.8 m
318.4 503.8 320.9 501.4 320.9 498.2 c
320.9 495 318.4 492.6 315.3 492.6 c
312.1 492.6 309.7 495 309.7 498.2 c
309.7 501.4 312.1 503.8 315.3 503.8 c
h
f*
/DeviceRGB {} CS
[0 0 0] SC
q
1.49989 w
2 J
0 j
7.66129 M
315.3 503.8 m
318.4 503.8 320.9 501.4 320.9 498.2 c
320.9 495 318.4 492.6 315.3 492.6 c
312.1 492.6 309.7 495 309.7 498.2 c
309.7 501.4 312.1 503.8 315.3 503.8 c
h
S
Q
332.3 486.9 m
335.5 486.9 337.9 484.4 337.9 481.2 c
337.9 478.1 335.5 475.6 332.3 475.6 c
329.1 475.6 326.7 478.1 326.7 481.2 c
326.7 484.4 329.1 486.9 332.3 486.9 c
h
f*
/DeviceRGB {} CS
[0 0 0] SC
q
1.49989 w
2 J
0 j
7.66129 M
332.3 486.9 m
335.5 486.9 337.9 484.4 337.9 481.2 c
337.9 478.1 335.5 475.6 332.3 475.6 c
329.1 475.6 326.7 478.1 326.7 481.2 c
326.7 484.4 329.1 486.9 332.3 486.9 c
h
S
Q
320.9 532.2 m
324.1 532.2 326.6 529.8 326.6 526.6 c
326.6 523.4 324.1 521 320.9 521 c
317.7 521 315.3 523.4 315.3 526.6 c
315.3 529.8 317.7 532.2 320.9 532.2 c
h
f*
/DeviceRGB {} CS
[0 0 0] SC
q
1.49989 w
2 J
0 j
7.66129 M
320.9 532.2 m
324.1 532.2 326.6 529.8 326.6 526.6 c
326.6 523.4 324.1 521 320.9 521 c
317.7 521 315.3 523.4 315.3 526.6 c
315.3 529.8 317.7 532.2 320.9 532.2 c
h
S
Q
252.9 520.8 m
256.1 520.8 258.5 518.4 258.5 515.2 c
258.5 512.1 256.1 509.6 252.9 509.6 c
249.7 509.6 247.3 512.1 247.3 515.2 c
247.3 518.4 249.7 520.8 252.9 520.8 c
h
f*
/DeviceRGB {} CS
[0 0 0] SC
q
1.49989 w
2 J
0 j
7.66129 M
252.9 520.8 m
256.1 520.8 258.5 518.4 258.5 515.2 c
258.5 512.1 256.1 509.6 252.9 509.6 c
249.7 509.6 247.3 512.1 247.3 515.2 c
247.3 518.4 249.7 520.8 252.9 520.8 c
h
S
Q
275.5 475.6 m
278.7 475.6 281.2 473.2 281.2 470 c
281.2 466.8 278.7 464.3 275.5 464.3 c
272.4 464.3 269.9 466.8 269.9 470 c
269.9 473.2 272.4 475.6 275.5 475.6 c
h
f*
/DeviceRGB {} CS
[0 0 0] SC
q
1.49989 w
2 J
0 j
7.66129 M
275.5 475.6 m
278.7 475.6 281.2 473.2 281.2 470 c
281.2 466.8 278.7 464.3 275.5 464.3 c
272.4 464.3 269.9 466.8 269.9 470 c
269.9 473.2 272.4 475.6 275.5 475.6 c
h
S
Q
292.6 458.5 m
295.8 458.5 298.3 456 298.3 452.9 c
298.3 449.7 295.8 447.2 292.6 447.2 c
289.5 447.2 287 449.7 287 452.9 c
287 456 289.5 458.5 292.6 458.5 c
h
f*
/DeviceRGB {} CS
[0 0 0] SC
q
1.49989 w
2 J
0 j
7.66129 M
292.6 458.5 m
295.8 458.5 298.3 456 298.3 452.9 c
298.3 449.7 295.8 447.2 292.6 447.2 c
289.5 447.2 287 449.7 287 452.9 c
287 456 289.5 458.5 292.6 458.5 c
h
S
Q
281.3 503.8 m
284.5 503.8 286.9 501.4 286.9 498.2 c
286.9 495 284.5 492.6 281.3 492.6 c
278.1 492.6 275.7 495 275.7 498.2 c
275.7 501.4 278.1 503.8 281.3 503.8 c
h
f*
/DeviceRGB {} CS
[0 0 0] SC
q
1.49989 w
2 J
0 j
7.66129 M
281.3 503.8 m
284.5 503.8 286.9 501.4 286.9 498.2 c
286.9 495 284.5 492.6 281.3 492.6 c
278.1 492.6 275.7 495 275.7 498.2 c
275.7 501.4 278.1 503.8 281.3 503.8 c
h
S
Q
275.5 452.8 m
278.7 452.8 281.2 450.4 281.2 447.2 c
281.2 444 278.7 441.6 275.5 441.6 c
272.4 441.6 269.9 444 269.9 447.2 c
269.9 450.4 272.4 452.8 275.5 452.8 c
h
f*
/DeviceRGB {} CS
[0 0 0] SC
q
1.49989 w
2 J
0 j
7.66129 M
275.5 452.8 m
278.7 452.8 281.2 450.4 281.2 447.2 c
281.2 444 278.7 441.6 275.5 441.6 c
272.4 441.6 269.9 444 269.9 447.2 c
269.9 450.4 272.4 452.8 275.5 452.8 c
h
S
Q
292.5 435.8 m
295.7 435.8 298.2 433.4 298.2 430.2 c
298.2 427 295.7 424.6 292.5 424.6 c
289.4 424.6 286.9 427 286.9 430.2 c
286.9 433.4 289.4 435.8 292.5 435.8 c
h
f*
/DeviceRGB {} CS
[0 0 0] SC
q
1.49989 w
2 J
0 j
7.66129 M
292.5 435.8 m
295.7 435.8 298.2 433.4 298.2 430.2 c
298.2 427 295.7 424.6 292.5 424.6 c
289.4 424.6 286.9 427 286.9 430.2 c
286.9 433.4 289.4 435.8 292.5 435.8 c
h
S
Q
309.5 418.8 m
312.7 418.8 315.2 416.4 315.2 413.2 c
315.2 410.1 312.7 407.6 309.5 407.6 c
306.3 407.6 303.9 410.1 303.9 413.2 c
303.9 416.4 306.3 418.8 309.5 418.8 c
h
f*
/DeviceRGB {} CS
[0 0 0] SC
q
1.49989 w
2 J
0 j
7.66129 M
309.5 418.8 m
312.7 418.8 315.2 416.4 315.2 413.2 c
315.2 410.1 312.7 407.6 309.5 407.6 c
306.3 407.6 303.9 410.1 303.9 413.2 c
303.9 416.4 306.3 418.8 309.5 418.8 c
h
S
Q
326.7 401.7 m
329.9 401.7 332.3 399.3 332.3 396.1 c
332.3 392.9 329.9 390.5 326.7 390.5 c
323.5 390.5 321.1 392.9 321.1 396.1 c
321.1 399.3 323.5 401.7 326.7 401.7 c
h
f*
/DeviceRGB {} CS
[0 0 0] SC
q
1.49989 w
2 J
0 j
7.66129 M
326.7 401.7 m
329.9 401.7 332.3 399.3 332.3 396.1 c
332.3 392.9 329.9 390.5 326.7 390.5 c
323.5 390.5 321.1 392.9 321.1 396.1 c
321.1 399.3 323.5 401.7 326.7 401.7 c
h
S
Q
315.3 447.1 m
318.4 447.1 320.9 444.6 320.9 441.5 c
320.9 438.3 318.4 435.8 315.3 435.8 c
312.1 435.8 309.7 438.3 309.7 441.5 c
309.7 444.6 312.1 447.1 315.3 447.1 c
h
f*
/DeviceRGB {} CS
[0 0 0] SC
q
1.49989 w
2 J
0 j
7.66129 M
315.3 447.1 m
318.4 447.1 320.9 444.6 320.9 441.5 c
320.9 438.3 318.4 435.8 315.3 435.8 c
312.1 435.8 309.7 438.3 309.7 441.5 c
309.7 444.6 312.1 447.1 315.3 447.1 c
h
S
Q
264.3 407.4 m
267.4 407.4 269.9 405 269.9 401.8 c
269.9 398.6 267.4 396.2 264.3 396.2 c
261.1 396.2 258.7 398.6 258.7 401.8 c
258.7 405 261.1 407.4 264.3 407.4 c
h
f*
/DeviceRGB {} CS
[0 0 0] SC
q
1.49989 w
2 J
0 j
7.66129 M
264.3 407.4 m
267.4 407.4 269.9 405 269.9 401.8 c
269.9 398.6 267.4 396.2 264.3 396.2 c
261.1 396.2 258.7 398.6 258.7 401.8 c
258.7 405 261.1 407.4 264.3 407.4 c
h
S
Q
281.1 390.6 m
284.3 390.6 286.8 388.1 286.8 385 c
286.8 381.8 284.3 379.3 281.1 379.3 c
278 379.3 275.5 381.8 275.5 385 c
275.5 388.1 278 390.6 281.1 390.6 c
h
f*
/DeviceRGB {} CS
[0 0 0] SC
q
1.49989 w
2 J
0 j
7.66129 M
281.1 390.6 m
284.3 390.6 286.8 388.1 286.8 385 c
286.8 381.8 284.3 379.3 281.1 379.3 c
278 379.3 275.5 381.8 275.5 385 c
275.5 388.1 278 390.6 281.1 390.6 c
h
S
Q
298.3 373.5 m
301.5 373.5 303.9 371 303.9 367.9 c
303.9 364.7 301.5 362.2 298.3 362.2 c
295.1 362.2 292.7 364.7 292.7 367.9 c
292.7 371 295.1 373.5 298.3 373.5 c
h
f*
/DeviceRGB {} CS
[0 0 0] SC
q
1.49989 w
2 J
0 j
7.66129 M
298.3 373.5 m
301.5 373.5 303.9 371 303.9 367.9 c
303.9 364.7 301.5 362.2 298.3 362.2 c
295.1 362.2 292.7 364.7 292.7 367.9 c
292.7 371 295.1 373.5 298.3 373.5 c
h
S
Q
286.9 418.8 m
290.1 418.8 292.5 416.4 292.5 413.2 c
292.5 410.1 290.1 407.6 286.9 407.6 c
283.7 407.6 281.3 410.1 281.3 413.2 c
281.3 416.4 283.7 418.8 286.9 418.8 c
h
f*
/DeviceRGB {} CS
[0 0 0] SC
q
1.49989 w
2 J
0 j
7.66129 M
286.9 418.8 m
290.1 418.8 292.5 416.4 292.5 413.2 c
292.5 410.1 290.1 407.6 286.9 407.6 c
283.7 407.6 281.3 410.1 281.3 413.2 c
281.3 416.4 283.7 418.8 286.9 418.8 c
h
S
Q
303.9 475.5 m
307.1 475.5 309.5 473 309.5 469.8 c
309.5 466.7 307.1 464.2 303.9 464.2 c
300.7 464.2 298.3 466.7 298.3 469.8 c
298.3 473 300.7 475.5 303.9 475.5 c
h
f*
/DeviceRGB {} CS
[0 0 0] SC
q
1.49989 w
2 J
0 j
7.66129 M
303.9 475.5 m
307.1 475.5 309.5 473 309.5 469.8 c
309.5 466.7 307.1 464.2 303.9 464.2 c
300.7 464.2 298.3 466.7 298.3 469.8 c
298.3 473 300.7 475.5 303.9 475.5 c
h
S
Q
326.5 600.2 m
329.7 600.2 332.2 597.8 332.2 594.6 c
332.2 591.4 329.7 589 326.5 589 c
323.3 589 320.9 591.4 320.9 594.6 c
320.9 597.8 323.3 600.2 326.5 600.2 c
h
f*
/DeviceRGB {} CS
[0 0 0] SC
q
1.49989 w
2 J
0 j
7.66129 M
326.5 600.2 m
329.7 600.2 332.2 597.8 332.2 594.6 c
332.2 591.4 329.7 589 326.5 589 c
323.3 589 320.9 591.4 320.9 594.6 c
320.9 597.8 323.3 600.2 326.5 600.2 c
h
S
Q
326.5 566.2 m
329.7 566.2 332.2 563.8 332.2 560.6 c
332.2 557.4 329.7 555 326.5 555 c
323.3 555 320.9 557.4 320.9 560.6 c
320.9 563.8 323.3 566.2 326.5 566.2 c
h
f*
/DeviceRGB {} CS
[0 0 0] SC
q
1.49989 w
2 J
0 j
7.66129 M
326.5 566.2 m
329.7 566.2 332.2 563.8 332.2 560.6 c
332.2 557.4 329.7 555 326.5 555 c
323.3 555 320.9 557.4 320.9 560.6 c
320.9 563.8 323.3 566.2 326.5 566.2 c
h
S
Q
320.9 657 m
324.1 657 326.6 654.5 326.6 651.3 c
326.6 648.2 324.1 645.7 320.9 645.7 c
317.7 645.7 315.3 648.2 315.3 651.3 c
315.3 654.5 317.7 657 320.9 657 c
h
f*
/DeviceRGB {} CS
[0 0 0] SC
q
1.49989 w
2 J
0 j
7.66129 M
320.9 657 m
324.1 657 326.6 654.5 326.6 651.3 c
326.6 648.2 324.1 645.7 320.9 645.7 c
317.7 645.7 315.3 648.2 315.3 651.3 c
315.3 654.5 317.7 657 320.9 657 c
h
S
Q
303.9 583.2 m
307.1 583.2 309.5 580.7 309.5 577.6 c
309.5 574.4 307.1 571.9 303.9 571.9 c
300.7 571.9 298.3 574.4 298.3 577.6 c
298.3 580.7 300.7 583.2 303.9 583.2 c
h
f*
/DeviceRGB {} CS
[0 0 0] SC
q
1.49989 w
2 J
0 j
7.66129 M
303.9 583.2 m
307.1 583.2 309.5 580.7 309.5 577.6 c
309.5 574.4 307.1 571.9 303.9 571.9 c
300.7 571.9 298.3 574.4 298.3 577.6 c
298.3 580.7 300.7 583.2 303.9 583.2 c
h
S
Q
269.9 350.7 m
273.1 350.7 275.6 348.3 275.6 345.1 c
275.6 341.9 273.1 339.4 269.9 339.4 c
266.8 339.4 264.3 341.9 264.3 345.1 c
264.3 348.3 266.8 350.7 269.9 350.7 c
h
f*
/DeviceRGB {} CS
[0 0 0] SC
q
1.49989 w
2 J
0 j
7.66129 M
269.9 350.7 m
273.1 350.7 275.6 348.3 275.6 345.1 c
275.6 341.9 273.1 339.4 269.9 339.4 c
266.8 339.4 264.3 341.9 264.3 345.1 c
264.3 348.3 266.8 350.7 269.9 350.7 c
h
S
Q
/DeviceRGB {} cs
[0.2863 0.1882 0.8863] sc
63 640.1 m
54.5 640.1 l
54.5 657 l
71.4 657 l
71.4 640.1 l
63 640.1 l
h
f*
/DeviceRGB {} CS
[0 0 0] SC
q
1.49989 w
2 J
0 j
7.66129 M
63 640.1 m
54.5 640.1 l
54.5 657 l
71.4 657 l
71.4 640.1 l
63 640.1 l
h
S
Q
102.6 662.7 m
94.2 662.7 l
94.2 679.6 l
111 679.6 l
111 662.7 l
102.6 662.7 l
h
f*
/DeviceRGB {} CS
[0 0 0] SC
q
1.49989 w
2 J
0 j
7.66129 M
102.6 662.7 m
94.2 662.7 l
94.2 679.6 l
111 679.6 l
111 662.7 l
102.6 662.7 l
h
S
Q
125.4 628.7 m
116.9 628.7 l
116.9 645.6 l
133.8 645.6 l
133.8 628.7 l
125.4 628.7 l
h
f*
/DeviceRGB {} CS
[0 0 0] SC
q
1.49989 w
2 J
0 j
7.66129 M
125.4 628.7 m
116.9 628.7 l
116.9 645.6 l
133.8 645.6 l
133.8 628.7 l
125.4 628.7 l
h
S
Q
80 588.9 m
71.5 588.9 l
71.5 605.8 l
88.4 605.8 l
88.4 588.9 l
80 588.9 l
h
f*
/DeviceRGB {} CS
[0 0 0] SC
q
1.49989 w
2 J
0 j
7.66129 M
80 588.9 m
71.5 588.9 l
71.5 605.8 l
88.4 605.8 l
88.4 588.9 l
80 588.9 l
h
S
Q
131 577.7 m
122.5 577.7 l
122.5 594.6 l
139.4 594.6 l
139.4 577.7 l
131 577.7 l
h
f*
/DeviceRGB {} CS
[0 0 0] SC
q
1.49989 w
2 J
0 j
7.66129 M
131 577.7 m
122.5 577.7 l
122.5 594.6 l
139.4 594.6 l
139.4 577.7 l
131 577.7 l
h
S
Q
153.6 538 m
145.2 538 l
145.2 554.8 l
162 554.8 l
162 538 l
153.6 538 l
h
f*
/DeviceRGB {} CS
[0 0 0] SC
q
1.49989 w
2 J
0 j
7.66129 M
153.6 538 m
145.2 538 l
145.2 554.8 l
162 554.8 l
162 538 l
153.6 538 l
h
S
Q
91.2 532.3 m
82.8 532.3 l
82.8 549.2 l
99.7 549.2 l
99.7 532.3 l
91.2 532.3 l
h
f*
/DeviceRGB {} CS
[0 0 0] SC
q
1.49989 w
2 J
0 j
7.66129 M
91.2 532.3 m
82.8 532.3 l
82.8 549.2 l
99.7 549.2 l
99.7 532.3 l
91.2 532.3 l
h
S
Q
142.4 504 m
133.9 504 l
133.9 520.8 l
150.8 520.8 l
150.8 504 l
142.4 504 l
h
f*
/DeviceRGB {} CS
[0 0 0] SC
q
1.49989 w
2 J
0 j
7.66129 M
142.4 504 m
133.9 504 l
133.9 520.8 l
150.8 520.8 l
150.8 504 l
142.4 504 l
h
S
Q
74.2 492.5 m
65.8 492.5 l
65.8 509.4 l
82.7 509.4 l
82.7 492.5 l
74.2 492.5 l
h
f*
/DeviceRGB {} CS
[0 0 0] SC
q
1.49989 w
2 J
0 j
7.66129 M
74.2 492.5 m
65.8 492.5 l
65.8 509.4 l
82.7 509.4 l
82.7 492.5 l
74.2 492.5 l
h
S
Q
125.4 469.9 m
116.9 469.9 l
116.9 486.8 l
133.8 486.8 l
133.8 469.9 l
125.4 469.9 l
h
f*
/DeviceRGB {} CS
[0 0 0] SC
q
1.49989 w
2 J
0 j
7.66129 M
125.4 469.9 m
116.9 469.9 l
116.9 486.8 l
133.8 486.8 l
133.8 469.9 l
125.4 469.9 l
h
S
Q
74.2 430.2 m
65.8 430.2 l
65.8 447.1 l
82.7 447.1 l
82.7 430.2 l
74.2 430.2 l
h
f*
/DeviceRGB {} CS
[0 0 0] SC
q
1.49989 w
2 J
0 j
7.66129 M
74.2 430.2 m
65.8 430.2 l
65.8 447.1 l
82.7 447.1 l
82.7 430.2 l
74.2 430.2 l
h
S
Q
142.4 430.2 m
133.9 430.2 l
133.9 447.1 l
150.8 447.1 l
150.8 430.2 l
142.4 430.2 l
h
f*
/DeviceRGB {} CS
[0 0 0] SC
q
1.49989 w
2 J
0 j
7.66129 M
142.4 430.2 m
133.9 430.2 l
133.9 447.1 l
150.8 447.1 l
150.8 430.2 l
142.4 430.2 l
h
S
Q
80 623.1 m
71.5 623.1 l
71.5 639.9 l
88.4 639.9 l
88.4 623.1 l
80 623.1 l
h
f*
/DeviceRGB {} CS
[0 0 0] SC
q
1.49989 w
2 J
0 j
7.66129 M
80 623.1 m
71.5 623.1 l
71.5 639.9 l
88.4 639.9 l
88.4 623.1 l
80 623.1 l
h
S
Q
102.6 367.8 m
94.2 367.8 l
94.2 384.7 l
111 384.7 l
111 367.8 l
102.6 367.8 l
h
f*
/DeviceRGB {} CS
[0 0 0] SC
q
1.49989 w
2 J
0 j
7.66129 M
102.6 367.8 m
94.2 367.8 l
94.2 384.7 l
111 384.7 l
111 367.8 l
102.6 367.8 l
h
S
Q
153.6 373.5 m
145.2 373.5 l
145.2 390.4 l
162 390.4 l
162 373.5 l
153.6 373.5 l
h
f*
/DeviceRGB {} CS
[0 0 0] SC
q
1.49989 w
2 J
0 j
7.66129 M
153.6 373.5 m
145.2 373.5 l
145.2 390.4 l
162 390.4 l
162 373.5 l
153.6 373.5 l
h
S
Q
q
1.49989 w
2 J
0 j
7.66129 M
138.1 685.3 m
223.2 316.8 l
S
Q
Q
Q
showpage
%%PageTrailer
pdfEndPage
%%Trailer
end
%%DocumentSuppliedResources:
%%Trailer
cleartomark
countdictstack
exch sub { end } repeat
restore
%%EOF
