%!PS-Adobe-2.0 EPSF-2.0
%%BoundingBox: 47 317 355 693
%%HiResBoundingBox: 47.500000 317.000000 355.000000 693.000000
%Produced by poppler pdftops version: 0.24.5 (http://poppler.freedesktop.org)
%%Creator: Draw
%%LanguageLevel: 2
%%DocumentMedia: 612x792 612 792 0 () ()
%%EndComments
% EPSF created by ps2eps 1.68
%%BeginProlog
save
countdictstack
mark
newpath
/showpage {} def
/setpagedevice {pop} def
%%EndProlog
%%Page 1 1
%%BeginProlog
%%BeginResource: procset xpdf 3.00 0
%%Copyright: Copyright 1996-2011 Glyph & Cog, LLC
/xpdf 75 dict def xpdf begin
% PDF special state
/pdfDictSize 15 def
/pdfSetup {
  /setpagedevice where {
    pop 2 dict begin
      /Policies 1 dict dup begin /PageSize 6 def end def
      { /Duplex true def } if
    currentdict end setpagedevice
  } {
    pop
  } ifelse
} def
/pdfSetupPaper {
  2 array astore
  /setpagedevice where {
    pop 2 dict begin
      /PageSize exch def
      /ImagingBBox null def
    currentdict end setpagedevice
  } {
    pop
  } ifelse
} def
/pdfStartPage {
  pdfDictSize dict begin
  /pdfFillCS [] def
  /pdfFillXform {} def
  /pdfStrokeCS [] def
  /pdfStrokeXform {} def
  /pdfFill [0] def
  /pdfStroke [0] def
  /pdfFillOP false def
  /pdfStrokeOP false def
  /pdfLastFill false def
  /pdfLastStroke false def
  /pdfTextMat [1 0 0 1 0 0] def
  /pdfFontSize 0 def
  /pdfCharSpacing 0 def
  /pdfTextRender 0 def
  /pdfPatternCS false def
  /pdfTextRise 0 def
  /pdfWordSpacing 0 def
  /pdfHorizScaling 1 def
  /pdfTextClipPath [] def
} def
/pdfEndPage { end } def
% PDF color state
/cs { /pdfFillXform exch def dup /pdfFillCS exch def
      setcolorspace } def
/CS { /pdfStrokeXform exch def dup /pdfStrokeCS exch def
      setcolorspace } def
/sc { pdfLastFill not { pdfFillCS setcolorspace } if
      dup /pdfFill exch def aload pop pdfFillXform setcolor
     /pdfLastFill true def /pdfLastStroke false def } def
/SC { pdfLastStroke not { pdfStrokeCS setcolorspace } if
      dup /pdfStroke exch def aload pop pdfStrokeXform setcolor
     /pdfLastStroke true def /pdfLastFill false def } def
/op { /pdfFillOP exch def
      pdfLastFill { pdfFillOP setoverprint } if } def
/OP { /pdfStrokeOP exch def
      pdfLastStroke { pdfStrokeOP setoverprint } if } def
/fCol {
  pdfLastFill not {
    pdfFillCS setcolorspace
    pdfFill aload pop pdfFillXform setcolor
    pdfFillOP setoverprint
    /pdfLastFill true def /pdfLastStroke false def
  } if
} def
/sCol {
  pdfLastStroke not {
    pdfStrokeCS setcolorspace
    pdfStroke aload pop pdfStrokeXform setcolor
    pdfStrokeOP setoverprint
    /pdfLastStroke true def /pdfLastFill false def
  } if
} def
% build a font
/pdfMakeFont {
  4 3 roll findfont
  4 2 roll matrix scale makefont
  dup length dict begin
    { 1 index /FID ne { def } { pop pop } ifelse } forall
    /Encoding exch def
    currentdict
  end
  definefont pop
} def
/pdfMakeFont16 {
  exch findfont
  dup length dict begin
    { 1 index /FID ne { def } { pop pop } ifelse } forall
    /WMode exch def
    currentdict
  end
  definefont pop
} def
% graphics state operators
/q { gsave pdfDictSize dict begin } def
/Q {
  end grestore
  /pdfLastFill where {
    pop
    pdfLastFill {
      pdfFillOP setoverprint
    } {
      pdfStrokeOP setoverprint
    } ifelse
  } if
} def
/cm { concat } def
/d { setdash } def
/i { setflat } def
/j { setlinejoin } def
/J { setlinecap } def
/M { setmiterlimit } def
/w { setlinewidth } def
% path segment operators
/m { moveto } def
/l { lineto } def
/c { curveto } def
/re { 4 2 roll moveto 1 index 0 rlineto 0 exch rlineto
      neg 0 rlineto closepath } def
/h { closepath } def
% path painting operators
/S { sCol stroke } def
/Sf { fCol stroke } def
/f { fCol fill } def
/f* { fCol eofill } def
% clipping operators
/W { clip newpath } def
/W* { eoclip newpath } def
/Ws { strokepath clip newpath } def
% text state operators
/Tc { /pdfCharSpacing exch def } def
/Tf { dup /pdfFontSize exch def
      dup pdfHorizScaling mul exch matrix scale
      pdfTextMat matrix concatmatrix dup 4 0 put dup 5 0 put
      exch findfont exch makefont setfont } def
/Tr { /pdfTextRender exch def } def
/Tp { /pdfPatternCS exch def } def
/Ts { /pdfTextRise exch def } def
/Tw { /pdfWordSpacing exch def } def
/Tz { /pdfHorizScaling exch def } def
% text positioning operators
/Td { pdfTextMat transform moveto } def
/Tm { /pdfTextMat exch def } def
% text string operators
/xyshow where {
  pop
  /xyshow2 {
    dup length array
    0 2 2 index length 1 sub {
      2 index 1 index 2 copy get 3 1 roll 1 add get
      pdfTextMat dtransform
      4 2 roll 2 copy 6 5 roll put 1 add 3 1 roll dup 4 2 roll put
    } for
    exch pop
    xyshow
  } def
}{
  /xyshow2 {
    currentfont /FontType get 0 eq {
      0 2 3 index length 1 sub {
        currentpoint 4 index 3 index 2 getinterval show moveto
        2 copy get 2 index 3 2 roll 1 add get
        pdfTextMat dtransform rmoveto
      } for
    } {
      0 1 3 index length 1 sub {
        currentpoint 4 index 3 index 1 getinterval show moveto
        2 copy 2 mul get 2 index 3 2 roll 2 mul 1 add get
        pdfTextMat dtransform rmoveto
      } for
    } ifelse
    pop pop
  } def
} ifelse
/cshow where {
  pop
  /xycp {
    0 3 2 roll
    {
      pop pop currentpoint 3 2 roll
      1 string dup 0 4 3 roll put false charpath moveto
      2 copy get 2 index 2 index 1 add get
      pdfTextMat dtransform rmoveto
      2 add
    } exch cshow
    pop pop
  } def
}{
  /xycp {
    currentfont /FontType get 0 eq {
      0 2 3 index length 1 sub {
        currentpoint 4 index 3 index 2 getinterval false charpath moveto
        2 copy get 2 index 3 2 roll 1 add get
        pdfTextMat dtransform rmoveto
      } for
    } {
      0 1 3 index length 1 sub {
        currentpoint 4 index 3 index 1 getinterval false charpath moveto
        2 copy 2 mul get 2 index 3 2 roll 2 mul 1 add get
        pdfTextMat dtransform rmoveto
      } for
    } ifelse
    pop pop
  } def
} ifelse
/Tj {
  fCol
  0 pdfTextRise pdfTextMat dtransform rmoveto
  currentpoint 4 2 roll
  pdfTextRender 1 and 0 eq {
    2 copy xyshow2
  } if
  pdfTextRender 3 and dup 1 eq exch 2 eq or {
    3 index 3 index moveto
    2 copy
    currentfont /FontType get 3 eq { fCol } { sCol } ifelse
    xycp currentpoint stroke moveto
  } if
  pdfTextRender 4 and 0 ne {
    4 2 roll moveto xycp
    /pdfTextClipPath [ pdfTextClipPath aload pop
      {/moveto cvx}
      {/lineto cvx}
      {/curveto cvx}
      {/closepath cvx}
    pathforall ] def
    currentpoint newpath moveto
  } {
    pop pop pop pop
  } ifelse
  0 pdfTextRise neg pdfTextMat dtransform rmoveto
} def
/TJm { 0.001 mul pdfFontSize mul pdfHorizScaling mul neg 0
       pdfTextMat dtransform rmoveto } def
/TJmV { 0.001 mul pdfFontSize mul neg 0 exch
        pdfTextMat dtransform rmoveto } def
/Tclip { pdfTextClipPath cvx exec clip newpath
         /pdfTextClipPath [] def } def
/Tclip* { pdfTextClipPath cvx exec eoclip newpath
         /pdfTextClipPath [] def } def
% Level 2/3 image operators
/pdfImBuf 100 string def
/pdfImStr {
  2 copy exch length lt {
    2 copy get exch 1 add exch
  } {
    ()
  } ifelse
} def
/skipEOD {
  { currentfile pdfImBuf readline
    not { pop exit } if
    (%-EOD-) eq { exit } if } loop
} def
/pdfIm { image skipEOD } def
/pdfImM { fCol imagemask skipEOD } def
/pr { 2 index 2 index 3 2 roll putinterval 4 add } def
/pdfImClip {
  gsave
  0 2 4 index length 1 sub {
    dup 4 index exch 2 copy
    get 5 index div put
    1 add 3 index exch 2 copy
    get 3 index div put
  } for
  pop pop rectclip
} def
/pdfImClipEnd { grestore } def
% shading operators
/colordelta {
  false 0 1 3 index length 1 sub {
    dup 4 index exch get 3 index 3 2 roll get sub abs 0.004 gt {
      pop true
    } if
  } for
  exch pop exch pop
} def
/funcCol { func n array astore } def
/funcSH {
  dup 0 eq {
    true
  } {
    dup 6 eq {
      false
    } {
      4 index 4 index funcCol dup
      6 index 4 index funcCol dup
      3 1 roll colordelta 3 1 roll
      5 index 5 index funcCol dup
      3 1 roll colordelta 3 1 roll
      6 index 8 index funcCol dup
      3 1 roll colordelta 3 1 roll
      colordelta or or or
    } ifelse
  } ifelse
  {
    1 add
    4 index 3 index add 0.5 mul exch 4 index 3 index add 0.5 mul exch
    6 index 6 index 4 index 4 index 4 index funcSH
    2 index 6 index 6 index 4 index 4 index funcSH
    6 index 2 index 4 index 6 index 4 index funcSH
    5 3 roll 3 2 roll funcSH pop pop
  } {
    pop 3 index 2 index add 0.5 mul 3 index  2 index add 0.5 mul
    funcCol sc
    dup 4 index exch mat transform m
    3 index 3 index mat transform l
    1 index 3 index mat transform l
    mat transform l pop pop h f*
  } ifelse
} def
/axialCol {
  dup 0 lt {
    pop t0
  } {
    dup 1 gt {
      pop t1
    } {
      dt mul t0 add
    } ifelse
  } ifelse
  func n array astore
} def
/axialSH {
  dup 0 eq {
    true
  } {
    dup 8 eq {
      false
    } {
      2 index axialCol 2 index axialCol colordelta
    } ifelse
  } ifelse
  {
    1 add 3 1 roll 2 copy add 0.5 mul
    dup 4 3 roll exch 4 index axialSH
    exch 3 2 roll axialSH
  } {
    pop 2 copy add 0.5 mul
    axialCol sc
    exch dup dx mul x0 add exch dy mul y0 add
    3 2 roll dup dx mul x0 add exch dy mul y0 add
    dx abs dy abs ge {
      2 copy yMin sub dy mul dx div add yMin m
      yMax sub dy mul dx div add yMax l
      2 copy yMax sub dy mul dx div add yMax l
      yMin sub dy mul dx div add yMin l
      h f*
    } {
      exch 2 copy xMin sub dx mul dy div add xMin exch m
      xMax sub dx mul dy div add xMax exch l
      exch 2 copy xMax sub dx mul dy div add xMax exch l
      xMin sub dx mul dy div add xMin exch l
      h f*
    } ifelse
  } ifelse
} def
/radialCol {
  dup t0 lt {
    pop t0
  } {
    dup t1 gt {
      pop t1
    } if
  } ifelse
  func n array astore
} def
/radialSH {
  dup 0 eq {
    true
  } {
    dup 8 eq {
      false
    } {
      2 index dt mul t0 add radialCol
      2 index dt mul t0 add radialCol colordelta
    } ifelse
  } ifelse
  {
    1 add 3 1 roll 2 copy add 0.5 mul
    dup 4 3 roll exch 4 index radialSH
    exch 3 2 roll radialSH
  } {
    pop 2 copy add 0.5 mul dt mul t0 add
    radialCol sc
    encl {
      exch dup dx mul x0 add exch dup dy mul y0 add exch dr mul r0 add
      0 360 arc h
      dup dx mul x0 add exch dup dy mul y0 add exch dr mul r0 add
      360 0 arcn h f
    } {
      2 copy
      dup dx mul x0 add exch dup dy mul y0 add exch dr mul r0 add
      a1 a2 arcn
      dup dx mul x0 add exch dup dy mul y0 add exch dr mul r0 add
      a2 a1 arcn h
      dup dx mul x0 add exch dup dy mul y0 add exch dr mul r0 add
      a1 a2 arc
      dup dx mul x0 add exch dup dy mul y0 add exch dr mul r0 add
      a2 a1 arc h f
    } ifelse
  } ifelse
} def
end
%%EndResource
%%EndProlog
%%BeginSetup
xpdf begin
false pdfSetup
%%EndSetup
%%Page: 1 1
%%PageMedia: 612x792
%%PageBoundingBox: 0 0 612 792
%%BeginPageSetup
%%PageOrientation: Portrait
612 792 pdfSetupPaper
pdfStartPage
0 0 612 792 re W
%%EndPageSetup
[] 0 d
1 i
0 j
0 J
10 M
1 w
/DeviceGray {} cs
[0] sc
/DeviceGray {} CS
[0] SC
false op
false OP
{} settransfer
q
0.1 w
q
0 0 612 792 re
W*
/DeviceRGB {} CS
[0 0 0] SC
q
1.49989 w
2 J
0 j
7.66129 M
201.1 318 m
48.1 318 l
48.1 692.2 l
354.1 692.2 l
354.1 318 l
201.1 318 l
h
S
Q
/DeviceRGB {} cs
[0.2314 0.5059 0.1843] sc
269.1 658.1 m
272.3 658.1 274.7 655.7 274.7 652.5 c
274.7 649.4 272.3 646.9 269.1 646.9 c
265.9 646.9 263.5 649.4 263.5 652.5 c
263.5 655.7 265.9 658.1 269.1 658.1 c
h
f*
/DeviceRGB {} CS
[0 0 0] SC
q
1.49989 w
2 J
0 j
7.66129 M
269.1 658.1 m
272.3 658.1 274.7 655.7 274.7 652.5 c
274.7 649.4 272.3 646.9 269.1 646.9 c
265.9 646.9 263.5 649.4 263.5 652.5 c
263.5 655.7 265.9 658.1 269.1 658.1 c
h
S
Q
286.1 641.1 m
289.2 641.1 291.7 638.7 291.7 635.5 c
291.7 632.3 289.2 629.9 286.1 629.9 c
282.9 629.9 280.5 632.3 280.5 635.5 c
280.5 638.7 282.9 641.1 286.1 641.1 c
h
f*
/DeviceRGB {} CS
[0 0 0] SC
q
1.49989 w
2 J
0 j
7.66129 M
286.1 641.1 m
289.2 641.1 291.7 638.7 291.7 635.5 c
291.7 632.3 289.2 629.9 286.1 629.9 c
282.9 629.9 280.5 632.3 280.5 635.5 c
280.5 638.7 282.9 641.1 286.1 641.1 c
h
S
Q
303.3 624 m
306.4 624 308.9 621.6 308.9 618.4 c
308.9 615.2 306.4 612.8 303.3 612.8 c
300.1 612.8 297.6 615.2 297.6 618.4 c
297.6 621.6 300.1 624 303.3 624 c
h
f*
/DeviceRGB {} CS
[0 0 0] SC
q
1.49989 w
2 J
0 j
7.66129 M
303.3 624 m
306.4 624 308.9 621.6 308.9 618.4 c
308.9 615.2 306.4 612.8 303.3 612.8 c
300.1 612.8 297.6 615.2 297.6 618.4 c
297.6 621.6 300.1 624 303.3 624 c
h
S
Q
291.8 669.4 m
295 669.4 297.5 667 297.5 663.8 c
297.5 660.6 295 658.1 291.8 658.1 c
288.7 658.1 286.2 660.6 286.2 663.8 c
286.2 667 288.7 669.4 291.8 669.4 c
h
f*
/DeviceRGB {} CS
[0 0 0] SC
q
1.49989 w
2 J
0 j
7.66129 M
291.8 669.4 m
295 669.4 297.5 667 297.5 663.8 c
297.5 660.6 295 658.1 291.8 658.1 c
288.7 658.1 286.2 660.6 286.2 663.8 c
286.2 667 288.7 669.4 291.8 669.4 c
h
S
Q
252.1 590 m
255.3 590 257.7 587.6 257.7 584.4 c
257.7 581.2 255.3 578.8 252.1 578.8 c
248.9 578.8 246.5 581.2 246.5 584.4 c
246.5 587.6 248.9 590 252.1 590 c
h
f*
/DeviceRGB {} CS
[0 0 0] SC
q
1.49989 w
2 J
0 j
7.66129 M
252.1 590 m
255.3 590 257.7 587.6 257.7 584.4 c
257.7 581.2 255.3 578.8 252.1 578.8 c
248.9 578.8 246.5 581.2 246.5 584.4 c
246.5 587.6 248.9 590 252.1 590 c
h
S
Q
286.1 573.2 m
289.2 573.2 291.7 570.7 291.7 567.6 c
291.7 564.4 289.2 561.9 286.1 561.9 c
282.9 561.9 280.5 564.4 280.5 567.6 c
280.5 570.7 282.9 573.2 286.1 573.2 c
h
f*
/DeviceRGB {} CS
[0 0 0] SC
q
1.49989 w
2 J
0 j
7.66129 M
286.1 573.2 m
289.2 573.2 291.7 570.7 291.7 567.6 c
291.7 564.4 289.2 561.9 286.1 561.9 c
282.9 561.9 280.5 564.4 280.5 567.6 c
280.5 570.7 282.9 573.2 286.1 573.2 c
h
S
Q
303.3 556 m
306.4 556 308.9 553.5 308.9 550.4 c
308.9 547.2 306.4 544.8 303.3 544.8 c
300.1 544.8 297.6 547.2 297.6 550.4 c
297.6 553.5 300.1 556 303.3 556 c
h
f*
/DeviceRGB {} CS
[0 0 0] SC
q
1.49989 w
2 J
0 j
7.66129 M
303.3 556 m
306.4 556 308.9 553.5 308.9 550.4 c
308.9 547.2 306.4 544.8 303.3 544.8 c
300.1 544.8 297.6 547.2 297.6 550.4 c
297.6 553.5 300.1 556 303.3 556 c
h
S
Q
291.8 601.4 m
295 601.4 297.5 599 297.5 595.8 c
297.5 592.6 295 590.1 291.8 590.1 c
288.7 590.1 286.2 592.6 286.2 595.8 c
286.2 599 288.7 601.4 291.8 601.4 c
h
f*
/DeviceRGB {} CS
[0 0 0] SC
q
1.49989 w
2 J
0 j
7.66129 M
291.8 601.4 m
295 601.4 297.5 599 297.5 595.8 c
297.5 592.6 295 590.1 291.8 590.1 c
288.7 590.1 286.2 592.6 286.2 595.8 c
286.2 599 288.7 601.4 291.8 601.4 c
h
S
Q
286.1 539.1 m
289.2 539.1 291.7 536.7 291.7 533.5 c
291.7 530.4 289.2 527.9 286.1 527.9 c
282.9 527.9 280.5 530.4 280.5 533.5 c
280.5 536.7 282.9 539.1 286.1 539.1 c
h
f*
/DeviceRGB {} CS
[0 0 0] SC
q
1.49989 w
2 J
0 j
7.66129 M
286.1 539.1 m
289.2 539.1 291.7 536.7 291.7 533.5 c
291.7 530.4 289.2 527.9 286.1 527.9 c
282.9 527.9 280.5 530.4 280.5 533.5 c
280.5 536.7 282.9 539.1 286.1 539.1 c
h
S
Q
303.1 522.1 m
306.3 522.1 308.7 519.7 308.7 516.5 c
308.7 513.3 306.3 510.9 303.1 510.9 c
299.9 510.9 297.5 513.3 297.5 516.5 c
297.5 519.7 299.9 522.1 303.1 522.1 c
h
f*
/DeviceRGB {} CS
[0 0 0] SC
q
1.49989 w
2 J
0 j
7.66129 M
303.1 522.1 m
306.3 522.1 308.7 519.7 308.7 516.5 c
308.7 513.3 306.3 510.9 303.1 510.9 c
299.9 510.9 297.5 513.3 297.5 516.5 c
297.5 519.7 299.9 522.1 303.1 522.1 c
h
S
Q
320.2 505 m
323.4 505 325.8 502.6 325.8 499.4 c
325.8 496.2 323.4 493.8 320.2 493.8 c
317 493.8 314.6 496.2 314.6 499.4 c
314.6 502.6 317 505 320.2 505 c
h
f*
/DeviceRGB {} CS
[0 0 0] SC
q
1.49989 w
2 J
0 j
7.66129 M
320.2 505 m
323.4 505 325.8 502.6 325.8 499.4 c
325.8 496.2 323.4 493.8 320.2 493.8 c
317 493.8 314.6 496.2 314.6 499.4 c
314.6 502.6 317 505 320.2 505 c
h
S
Q
337.2 488 m
340.4 488 342.9 485.6 342.9 482.4 c
342.9 479.3 340.4 476.8 337.2 476.8 c
334 476.8 331.6 479.3 331.6 482.4 c
331.6 485.6 334 488 337.2 488 c
h
f*
/DeviceRGB {} CS
[0 0 0] SC
q
1.49989 w
2 J
0 j
7.66129 M
337.2 488 m
340.4 488 342.9 485.6 342.9 482.4 c
342.9 479.3 340.4 476.8 337.2 476.8 c
334 476.8 331.6 479.3 331.6 482.4 c
331.6 485.6 334 488 337.2 488 c
h
S
Q
325.8 533.4 m
329 533.4 331.5 531 331.5 527.8 c
331.5 524.6 329 522.1 325.8 522.1 c
322.7 522.1 320.2 524.6 320.2 527.8 c
320.2 531 322.7 533.4 325.8 533.4 c
h
f*
/DeviceRGB {} CS
[0 0 0] SC
q
1.49989 w
2 J
0 j
7.66129 M
325.8 533.4 m
329 533.4 331.5 531 331.5 527.8 c
331.5 524.6 329 522.1 325.8 522.1 c
322.7 522.1 320.2 524.6 320.2 527.8 c
320.2 531 322.7 533.4 325.8 533.4 c
h
S
Q
257.8 522 m
261 522 263.5 519.6 263.5 516.4 c
263.5 513.2 261 510.8 257.8 510.8 c
254.7 510.8 252.2 513.2 252.2 516.4 c
252.2 519.6 254.7 522 257.8 522 c
h
f*
/DeviceRGB {} CS
[0 0 0] SC
q
1.49989 w
2 J
0 j
7.66129 M
257.8 522 m
261 522 263.5 519.6 263.5 516.4 c
263.5 513.2 261 510.8 257.8 510.8 c
254.7 510.8 252.2 513.2 252.2 516.4 c
252.2 519.6 254.7 522 257.8 522 c
h
S
Q
280.5 476.8 m
283.6 476.8 286.1 474.3 286.1 471.2 c
286.1 468 283.6 465.5 280.5 465.5 c
277.3 465.5 274.8 468 274.8 471.2 c
274.8 474.3 277.3 476.8 280.5 476.8 c
h
f*
/DeviceRGB {} CS
[0 0 0] SC
q
1.49989 w
2 J
0 j
7.66129 M
280.5 476.8 m
283.6 476.8 286.1 474.3 286.1 471.2 c
286.1 468 283.6 465.5 280.5 465.5 c
277.3 465.5 274.8 468 274.8 471.2 c
274.8 474.3 277.3 476.8 280.5 476.8 c
h
S
Q
297.6 459.7 m
300.8 459.7 303.2 457.2 303.2 454.1 c
303.2 450.9 300.8 448.4 297.6 448.4 c
294.4 448.4 292 450.9 292 454.1 c
292 457.2 294.4 459.7 297.6 459.7 c
h
f*
/DeviceRGB {} CS
[0 0 0] SC
q
1.49989 w
2 J
0 j
7.66129 M
297.6 459.7 m
300.8 459.7 303.2 457.2 303.2 454.1 c
303.2 450.9 300.8 448.4 297.6 448.4 c
294.4 448.4 292 450.9 292 454.1 c
292 457.2 294.4 459.7 297.6 459.7 c
h
S
Q
286.2 505 m
289.4 505 291.9 502.6 291.9 499.4 c
291.9 496.2 289.4 493.8 286.2 493.8 c
283 493.8 280.6 496.2 280.6 499.4 c
280.6 502.6 283 505 286.2 505 c
h
f*
/DeviceRGB {} CS
[0 0 0] SC
q
1.49989 w
2 J
0 j
7.66129 M
286.2 505 m
289.4 505 291.9 502.6 291.9 499.4 c
291.9 496.2 289.4 493.8 286.2 493.8 c
283 493.8 280.6 496.2 280.6 499.4 c
280.6 502.6 283 505 286.2 505 c
h
S
Q
280.5 454 m
283.6 454 286.1 451.6 286.1 448.4 c
286.1 445.2 283.6 442.8 280.5 442.8 c
277.3 442.8 274.8 445.2 274.8 448.4 c
274.8 451.6 277.3 454 280.5 454 c
h
f*
/DeviceRGB {} CS
[0 0 0] SC
q
1.49989 w
2 J
0 j
7.66129 M
280.5 454 m
283.6 454 286.1 451.6 286.1 448.4 c
286.1 445.2 283.6 442.8 280.5 442.8 c
277.3 442.8 274.8 445.2 274.8 448.4 c
274.8 451.6 277.3 454 280.5 454 c
h
S
Q
297.5 437 m
300.6 437 303.1 434.6 303.1 431.4 c
303.1 428.2 300.6 425.8 297.5 425.8 c
294.3 425.8 291.9 428.2 291.9 431.4 c
291.9 434.6 294.3 437 297.5 437 c
h
f*
/DeviceRGB {} CS
[0 0 0] SC
q
1.49989 w
2 J
0 j
7.66129 M
297.5 437 m
300.6 437 303.1 434.6 303.1 431.4 c
303.1 428.2 300.6 425.8 297.5 425.8 c
294.3 425.8 291.9 428.2 291.9 431.4 c
291.9 434.6 294.3 437 297.5 437 c
h
S
Q
314.4 420 m
317.6 420 320.1 417.6 320.1 414.4 c
320.1 411.3 317.6 408.8 314.4 408.8 c
311.3 408.8 308.8 411.3 308.8 414.4 c
308.8 417.6 311.3 420 314.4 420 c
h
f*
/DeviceRGB {} CS
[0 0 0] SC
q
1.49989 w
2 J
0 j
7.66129 M
314.4 420 m
317.6 420 320.1 417.6 320.1 414.4 c
320.1 411.3 317.6 408.8 314.4 408.8 c
311.3 408.8 308.8 411.3 308.8 414.4 c
308.8 417.6 311.3 420 314.4 420 c
h
S
Q
331.6 402.9 m
334.8 402.9 337.2 400.5 337.2 397.3 c
337.2 394.1 334.8 391.7 331.6 391.7 c
328.5 391.7 326 394.1 326 397.3 c
326 400.5 328.5 402.9 331.6 402.9 c
h
f*
/DeviceRGB {} CS
[0 0 0] SC
q
1.49989 w
2 J
0 j
7.66129 M
331.6 402.9 m
334.8 402.9 337.2 400.5 337.2 397.3 c
337.2 394.1 334.8 391.7 331.6 391.7 c
328.5 391.7 326 394.1 326 397.3 c
326 400.5 328.5 402.9 331.6 402.9 c
h
S
Q
320.2 448.3 m
323.4 448.3 325.8 445.8 325.8 442.7 c
325.8 439.5 323.4 437 320.2 437 c
317 437 314.6 439.5 314.6 442.7 c
314.6 445.8 317 448.3 320.2 448.3 c
h
f*
/DeviceRGB {} CS
[0 0 0] SC
q
1.49989 w
2 J
0 j
7.66129 M
320.2 448.3 m
323.4 448.3 325.8 445.8 325.8 442.7 c
325.8 439.5 323.4 437 320.2 437 c
317 437 314.6 439.5 314.6 442.7 c
314.6 445.8 317 448.3 320.2 448.3 c
h
S
Q
269.2 408.6 m
272.4 408.6 274.8 406.2 274.8 403 c
274.8 399.8 272.4 397.4 269.2 397.4 c
266 397.4 263.6 399.8 263.6 403 c
263.6 406.2 266 408.6 269.2 408.6 c
h
f*
/DeviceRGB {} CS
[0 0 0] SC
q
1.49989 w
2 J
0 j
7.66129 M
269.2 408.6 m
272.4 408.6 274.8 406.2 274.8 403 c
274.8 399.8 272.4 397.4 269.2 397.4 c
266 397.4 263.6 399.8 263.6 403 c
263.6 406.2 266 408.6 269.2 408.6 c
h
S
Q
286.1 391.8 m
289.2 391.8 291.7 389.3 291.7 386.2 c
291.7 383 289.2 380.5 286.1 380.5 c
282.9 380.5 280.5 383 280.5 386.2 c
280.5 389.3 282.9 391.8 286.1 391.8 c
h
f*
/DeviceRGB {} CS
[0 0 0] SC
q
1.49989 w
2 J
0 j
7.66129 M
286.1 391.8 m
289.2 391.8 291.7 389.3 291.7 386.2 c
291.7 383 289.2 380.5 286.1 380.5 c
282.9 380.5 280.5 383 280.5 386.2 c
280.5 389.3 282.9 391.8 286.1 391.8 c
h
S
Q
303.3 374.7 m
306.4 374.7 308.9 372.2 308.9 369 c
308.9 365.9 306.4 363.4 303.3 363.4 c
300.1 363.4 297.6 365.9 297.6 369 c
297.6 372.2 300.1 374.7 303.3 374.7 c
h
f*
/DeviceRGB {} CS
[0 0 0] SC
q
1.49989 w
2 J
0 j
7.66129 M
303.3 374.7 m
306.4 374.7 308.9 372.2 308.9 369 c
308.9 365.9 306.4 363.4 303.3 363.4 c
300.1 363.4 297.6 365.9 297.6 369 c
297.6 372.2 300.1 374.7 303.3 374.7 c
h
S
Q
291.8 420 m
295 420 297.5 417.6 297.5 414.4 c
297.5 411.3 295 408.8 291.8 408.8 c
288.7 408.8 286.2 411.3 286.2 414.4 c
286.2 417.6 288.7 420 291.8 420 c
h
f*
/DeviceRGB {} CS
[0 0 0] SC
q
1.49989 w
2 J
0 j
7.66129 M
291.8 420 m
295 420 297.5 417.6 297.5 414.4 c
297.5 411.3 295 408.8 291.8 408.8 c
288.7 408.8 286.2 411.3 286.2 414.4 c
286.2 417.6 288.7 420 291.8 420 c
h
S
Q
308.8 476.6 m
312 476.6 314.5 474.2 314.5 471 c
314.5 467.9 312 465.4 308.8 465.4 c
305.7 465.4 303.2 467.9 303.2 471 c
303.2 474.2 305.7 476.6 308.8 476.6 c
h
f*
/DeviceRGB {} CS
[0 0 0] SC
q
1.49989 w
2 J
0 j
7.66129 M
308.8 476.6 m
312 476.6 314.5 474.2 314.5 471 c
314.5 467.9 312 465.4 308.8 465.4 c
305.7 465.4 303.2 467.9 303.2 471 c
303.2 474.2 305.7 476.6 308.8 476.6 c
h
S
Q
331.5 601.4 m
334.6 601.4 337.1 599 337.1 595.8 c
337.1 592.6 334.6 590.1 331.5 590.1 c
328.3 590.1 325.8 592.6 325.8 595.8 c
325.8 599 328.3 601.4 331.5 601.4 c
h
f*
/DeviceRGB {} CS
[0 0 0] SC
q
1.49989 w
2 J
0 j
7.66129 M
331.5 601.4 m
334.6 601.4 337.1 599 337.1 595.8 c
337.1 592.6 334.6 590.1 331.5 590.1 c
328.3 590.1 325.8 592.6 325.8 595.8 c
325.8 599 328.3 601.4 331.5 601.4 c
h
S
Q
331.5 567.4 m
334.6 567.4 337.1 565 337.1 561.8 c
337.1 558.6 334.6 556.2 331.5 556.2 c
328.3 556.2 325.8 558.6 325.8 561.8 c
325.8 565 328.3 567.4 331.5 567.4 c
h
f*
/DeviceRGB {} CS
[0 0 0] SC
q
1.49989 w
2 J
0 j
7.66129 M
331.5 567.4 m
334.6 567.4 337.1 565 337.1 561.8 c
337.1 558.6 334.6 556.2 331.5 556.2 c
328.3 556.2 325.8 558.6 325.8 561.8 c
325.8 565 328.3 567.4 331.5 567.4 c
h
S
Q
325.8 658.1 m
329 658.1 331.5 655.7 331.5 652.5 c
331.5 649.4 329 646.9 325.8 646.9 c
322.7 646.9 320.2 649.4 320.2 652.5 c
320.2 655.7 322.7 658.1 325.8 658.1 c
h
f*
/DeviceRGB {} CS
[0 0 0] SC
q
1.49989 w
2 J
0 j
7.66129 M
325.8 658.1 m
329 658.1 331.5 655.7 331.5 652.5 c
331.5 649.4 329 646.9 325.8 646.9 c
322.7 646.9 320.2 649.4 320.2 652.5 c
320.2 655.7 322.7 658.1 325.8 658.1 c
h
S
Q
308.8 584.4 m
312 584.4 314.5 581.9 314.5 578.7 c
314.5 575.6 312 573.1 308.8 573.1 c
305.7 573.1 303.2 575.6 303.2 578.7 c
303.2 581.9 305.7 584.4 308.8 584.4 c
h
f*
/DeviceRGB {} CS
[0 0 0] SC
q
1.49989 w
2 J
0 j
7.66129 M
308.8 584.4 m
312 584.4 314.5 581.9 314.5 578.7 c
314.5 575.6 312 573.1 308.8 573.1 c
305.7 573.1 303.2 575.6 303.2 578.7 c
303.2 581.9 305.7 584.4 308.8 584.4 c
h
S
Q
274.9 351.9 m
278.1 351.9 280.5 349.5 280.5 346.3 c
280.5 343.1 278.1 340.6 274.9 340.6 c
271.7 340.6 269.3 343.1 269.3 346.3 c
269.3 349.5 271.7 351.9 274.9 351.9 c
h
f*
/DeviceRGB {} CS
[0 0 0] SC
q
1.49989 w
2 J
0 j
7.66129 M
274.9 351.9 m
278.1 351.9 280.5 349.5 280.5 346.3 c
280.5 343.1 278.1 340.6 274.9 340.6 c
271.7 340.6 269.3 343.1 269.3 346.3 c
269.3 349.5 271.7 351.9 274.9 351.9 c
h
S
Q
/DeviceRGB {} cs
[0.2863 0.1882 0.8863] sc
67.9 641.3 m
59.5 641.3 l
59.5 658.1 l
76.3 658.1 l
76.3 641.3 l
67.9 641.3 l
h
f*
/DeviceRGB {} CS
[0 0 0] SC
q
1.49989 w
2 J
0 j
7.66129 M
67.9 641.3 m
59.5 641.3 l
59.5 658.1 l
76.3 658.1 l
76.3 641.3 l
67.9 641.3 l
h
S
Q
107.5 663.9 m
99.1 663.9 l
99.1 680.8 l
116 680.8 l
116 663.9 l
107.5 663.9 l
h
f*
/DeviceRGB {} CS
[0 0 0] SC
q
1.49989 w
2 J
0 j
7.66129 M
107.5 663.9 m
99.1 663.9 l
99.1 680.8 l
116 680.8 l
116 663.9 l
107.5 663.9 l
h
S
Q
130.3 629.9 m
121.9 629.9 l
121.9 646.8 l
138.8 646.8 l
138.8 629.9 l
130.3 629.9 l
h
f*
/DeviceRGB {} CS
[0 0 0] SC
q
1.49989 w
2 J
0 j
7.66129 M
130.3 629.9 m
121.9 629.9 l
121.9 646.8 l
138.8 646.8 l
138.8 629.9 l
130.3 629.9 l
h
S
Q
84.9 590.1 m
76.5 590.1 l
76.5 607 l
93.3 607 l
93.3 590.1 l
84.9 590.1 l
h
f*
/DeviceRGB {} CS
[0 0 0] SC
q
1.49989 w
2 J
0 j
7.66129 M
84.9 590.1 m
76.5 590.1 l
76.5 607 l
93.3 607 l
93.3 590.1 l
84.9 590.1 l
h
S
Q
135.9 578.9 m
127.5 578.9 l
127.5 595.8 l
144.3 595.8 l
144.3 578.9 l
135.9 578.9 l
h
f*
/DeviceRGB {} CS
[0 0 0] SC
q
1.49989 w
2 J
0 j
7.66129 M
135.9 578.9 m
127.5 578.9 l
127.5 595.8 l
144.3 595.8 l
144.3 578.9 l
135.9 578.9 l
h
S
Q
158.5 539.1 m
150.1 539.1 l
150.1 556 l
167 556 l
167 539.1 l
158.5 539.1 l
h
f*
/DeviceRGB {} CS
[0 0 0] SC
q
1.49989 w
2 J
0 j
7.66129 M
158.5 539.1 m
150.1 539.1 l
150.1 556 l
167 556 l
167 539.1 l
158.5 539.1 l
h
S
Q
96.2 533.5 m
87.7 533.5 l
87.7 550.4 l
104.6 550.4 l
104.6 533.5 l
96.2 533.5 l
h
f*
/DeviceRGB {} CS
[0 0 0] SC
q
1.49989 w
2 J
0 j
7.66129 M
96.2 533.5 m
87.7 533.5 l
87.7 550.4 l
104.6 550.4 l
104.6 533.5 l
96.2 533.5 l
h
S
Q
147.3 505.2 m
138.9 505.2 l
138.9 522 l
155.8 522 l
155.8 505.2 l
147.3 505.2 l
h
f*
/DeviceRGB {} CS
[0 0 0] SC
q
1.49989 w
2 J
0 j
7.66129 M
147.3 505.2 m
138.9 505.2 l
138.9 522 l
155.8 522 l
155.8 505.2 l
147.3 505.2 l
h
S
Q
79.2 493.7 m
70.7 493.7 l
70.7 510.6 l
87.6 510.6 l
87.6 493.7 l
79.2 493.7 l
h
f*
/DeviceRGB {} CS
[0 0 0] SC
q
1.49989 w
2 J
0 j
7.66129 M
79.2 493.7 m
70.7 493.7 l
70.7 510.6 l
87.6 510.6 l
87.6 493.7 l
79.2 493.7 l
h
S
Q
130.3 471.1 m
121.9 471.1 l
121.9 488 l
138.8 488 l
138.8 471.1 l
130.3 471.1 l
h
f*
/DeviceRGB {} CS
[0 0 0] SC
q
1.49989 w
2 J
0 j
7.66129 M
130.3 471.1 m
121.9 471.1 l
121.9 488 l
138.8 488 l
138.8 471.1 l
130.3 471.1 l
h
S
Q
79.2 431.4 m
70.7 431.4 l
70.7 448.3 l
87.6 448.3 l
87.6 431.4 l
79.2 431.4 l
h
f*
/DeviceRGB {} CS
[0 0 0] SC
q
1.49989 w
2 J
0 j
7.66129 M
79.2 431.4 m
70.7 431.4 l
70.7 448.3 l
87.6 448.3 l
87.6 431.4 l
79.2 431.4 l
h
S
Q
147.3 431.4 m
138.9 431.4 l
138.9 448.3 l
155.8 448.3 l
155.8 431.4 l
147.3 431.4 l
h
f*
/DeviceRGB {} CS
[0 0 0] SC
q
1.49989 w
2 J
0 j
7.66129 M
147.3 431.4 m
138.9 431.4 l
138.9 448.3 l
155.8 448.3 l
155.8 431.4 l
147.3 431.4 l
h
S
Q
84.9 624.3 m
76.5 624.3 l
76.5 641.1 l
93.3 641.1 l
93.3 624.3 l
84.9 624.3 l
h
f*
/DeviceRGB {} CS
[0 0 0] SC
q
1.49989 w
2 J
0 j
7.66129 M
84.9 624.3 m
76.5 624.3 l
76.5 641.1 l
93.3 641.1 l
93.3 624.3 l
84.9 624.3 l
h
S
Q
107.5 369 m
99.1 369 l
99.1 385.9 l
116 385.9 l
116 369 l
107.5 369 l
h
f*
/DeviceRGB {} CS
[0 0 0] SC
q
1.49989 w
2 J
0 j
7.66129 M
107.5 369 m
99.1 369 l
99.1 385.9 l
116 385.9 l
116 369 l
107.5 369 l
h
S
Q
158.5 374.7 m
150.1 374.7 l
150.1 391.6 l
167 391.6 l
167 374.7 l
158.5 374.7 l
h
f*
/DeviceRGB {} CS
[0 0 0] SC
q
1.49989 w
2 J
0 j
7.66129 M
158.5 374.7 m
150.1 374.7 l
150.1 391.6 l
167 391.6 l
167 374.7 l
158.5 374.7 l
h
S
Q
q
1.49989 w
2 J
0 j
7.66129 M
189.9 686.4 m
275 317.9 l
S
Q
q
1.49989 w
2 J
0 j
7.66129 M
275.1 692.1 m
155.7 329.2 l
S
Q
q
1.49989 w
2 J
0 j
7.66129 M
138.9 680.7 m
229.6 329.2 l
S
Q
q
1.49989 w
2 J
0 j
7.66129 M
246.7 686.4 m
184.1 340.5 l
S
Q
q
1.49989 w
2 J
0 j
7.66129 M
167.2 680.7 m
258 323.5 l
S
Q
q
1.49989 w
2 J
0 j
7.66129 M
218.2 686.4 m
223.9 329.2 l
S
Q
Q
Q
showpage
%%PageTrailer
pdfEndPage
%%Trailer
end
%%DocumentSuppliedResources:
%%Trailer
cleartomark
countdictstack
exch sub { end } repeat
restore
%%EOF
