%!PS-Adobe-2.0 EPSF-2.0
%%BoundingBox: 144 329 519 343
%%HiResBoundingBox: 144.000000 329.000000 518.500000 343.000000
%Produced by poppler pdftops version: 0.24.5 (http://poppler.freedesktop.org)
%%Creator: Impress
%%LanguageLevel: 2
%%DocumentMedia: 720x540 720 540 0 () ()
%%EndComments
% EPSF created by ps2eps 1.68
%%BeginProlog
save
countdictstack
mark
newpath
/showpage {} def
/setpagedevice {pop} def
%%EndProlog
%%Page 1 1
%%BeginProlog
%%BeginResource: procset xpdf 3.00 0
%%Copyright: Copyright 1996-2011 Glyph & Cog, LLC
/xpdf 75 dict def xpdf begin
% PDF special state
/pdfDictSize 15 def
/pdfSetup {
  /setpagedevice where {
    pop 2 dict begin
      /Policies 1 dict dup begin /PageSize 6 def end def
      { /Duplex true def } if
    currentdict end setpagedevice
  } {
    pop
  } ifelse
} def
/pdfSetupPaper {
  2 array astore
  /setpagedevice where {
    pop 2 dict begin
      /PageSize exch def
      /ImagingBBox null def
    currentdict end setpagedevice
  } {
    pop
  } ifelse
} def
/pdfStartPage {
  pdfDictSize dict begin
  /pdfFillCS [] def
  /pdfFillXform {} def
  /pdfStrokeCS [] def
  /pdfStrokeXform {} def
  /pdfFill [0] def
  /pdfStroke [0] def
  /pdfFillOP false def
  /pdfStrokeOP false def
  /pdfLastFill false def
  /pdfLastStroke false def
  /pdfTextMat [1 0 0 1 0 0] def
  /pdfFontSize 0 def
  /pdfCharSpacing 0 def
  /pdfTextRender 0 def
  /pdfPatternCS false def
  /pdfTextRise 0 def
  /pdfWordSpacing 0 def
  /pdfHorizScaling 1 def
  /pdfTextClipPath [] def
} def
/pdfEndPage { end } def
% PDF color state
/cs { /pdfFillXform exch def dup /pdfFillCS exch def
      setcolorspace } def
/CS { /pdfStrokeXform exch def dup /pdfStrokeCS exch def
      setcolorspace } def
/sc { pdfLastFill not { pdfFillCS setcolorspace } if
      dup /pdfFill exch def aload pop pdfFillXform setcolor
     /pdfLastFill true def /pdfLastStroke false def } def
/SC { pdfLastStroke not { pdfStrokeCS setcolorspace } if
      dup /pdfStroke exch def aload pop pdfStrokeXform setcolor
     /pdfLastStroke true def /pdfLastFill false def } def
/op { /pdfFillOP exch def
      pdfLastFill { pdfFillOP setoverprint } if } def
/OP { /pdfStrokeOP exch def
      pdfLastStroke { pdfStrokeOP setoverprint } if } def
/fCol {
  pdfLastFill not {
    pdfFillCS setcolorspace
    pdfFill aload pop pdfFillXform setcolor
    pdfFillOP setoverprint
    /pdfLastFill true def /pdfLastStroke false def
  } if
} def
/sCol {
  pdfLastStroke not {
    pdfStrokeCS setcolorspace
    pdfStroke aload pop pdfStrokeXform setcolor
    pdfStrokeOP setoverprint
    /pdfLastStroke true def /pdfLastFill false def
  } if
} def
% build a font
/pdfMakeFont {
  4 3 roll findfont
  4 2 roll matrix scale makefont
  dup length dict begin
    { 1 index /FID ne { def } { pop pop } ifelse } forall
    /Encoding exch def
    currentdict
  end
  definefont pop
} def
/pdfMakeFont16 {
  exch findfont
  dup length dict begin
    { 1 index /FID ne { def } { pop pop } ifelse } forall
    /WMode exch def
    currentdict
  end
  definefont pop
} def
% graphics state operators
/q { gsave pdfDictSize dict begin } def
/Q {
  end grestore
  /pdfLastFill where {
    pop
    pdfLastFill {
      pdfFillOP setoverprint
    } {
      pdfStrokeOP setoverprint
    } ifelse
  } if
} def
/cm { concat } def
/d { setdash } def
/i { setflat } def
/j { setlinejoin } def
/J { setlinecap } def
/M { setmiterlimit } def
/w { setlinewidth } def
% path segment operators
/m { moveto } def
/l { lineto } def
/c { curveto } def
/re { 4 2 roll moveto 1 index 0 rlineto 0 exch rlineto
      neg 0 rlineto closepath } def
/h { closepath } def
% path painting operators
/S { sCol stroke } def
/Sf { fCol stroke } def
/f { fCol fill } def
/f* { fCol eofill } def
% clipping operators
/W { clip newpath } def
/W* { eoclip newpath } def
/Ws { strokepath clip newpath } def
% text state operators
/Tc { /pdfCharSpacing exch def } def
/Tf { dup /pdfFontSize exch def
      dup pdfHorizScaling mul exch matrix scale
      pdfTextMat matrix concatmatrix dup 4 0 put dup 5 0 put
      exch findfont exch makefont setfont } def
/Tr { /pdfTextRender exch def } def
/Tp { /pdfPatternCS exch def } def
/Ts { /pdfTextRise exch def } def
/Tw { /pdfWordSpacing exch def } def
/Tz { /pdfHorizScaling exch def } def
% text positioning operators
/Td { pdfTextMat transform moveto } def
/Tm { /pdfTextMat exch def } def
% text string operators
/xyshow where {
  pop
  /xyshow2 {
    dup length array
    0 2 2 index length 1 sub {
      2 index 1 index 2 copy get 3 1 roll 1 add get
      pdfTextMat dtransform
      4 2 roll 2 copy 6 5 roll put 1 add 3 1 roll dup 4 2 roll put
    } for
    exch pop
    xyshow
  } def
}{
  /xyshow2 {
    currentfont /FontType get 0 eq {
      0 2 3 index length 1 sub {
        currentpoint 4 index 3 index 2 getinterval show moveto
        2 copy get 2 index 3 2 roll 1 add get
        pdfTextMat dtransform rmoveto
      } for
    } {
      0 1 3 index length 1 sub {
        currentpoint 4 index 3 index 1 getinterval show moveto
        2 copy 2 mul get 2 index 3 2 roll 2 mul 1 add get
        pdfTextMat dtransform rmoveto
      } for
    } ifelse
    pop pop
  } def
} ifelse
/cshow where {
  pop
  /xycp {
    0 3 2 roll
    {
      pop pop currentpoint 3 2 roll
      1 string dup 0 4 3 roll put false charpath moveto
      2 copy get 2 index 2 index 1 add get
      pdfTextMat dtransform rmoveto
      2 add
    } exch cshow
    pop pop
  } def
}{
  /xycp {
    currentfont /FontType get 0 eq {
      0 2 3 index length 1 sub {
        currentpoint 4 index 3 index 2 getinterval false charpath moveto
        2 copy get 2 index 3 2 roll 1 add get
        pdfTextMat dtransform rmoveto
      } for
    } {
      0 1 3 index length 1 sub {
        currentpoint 4 index 3 index 1 getinterval false charpath moveto
        2 copy 2 mul get 2 index 3 2 roll 2 mul 1 add get
        pdfTextMat dtransform rmoveto
      } for
    } ifelse
    pop pop
  } def
} ifelse
/Tj {
  fCol
  0 pdfTextRise pdfTextMat dtransform rmoveto
  currentpoint 4 2 roll
  pdfTextRender 1 and 0 eq {
    2 copy xyshow2
  } if
  pdfTextRender 3 and dup 1 eq exch 2 eq or {
    3 index 3 index moveto
    2 copy
    currentfont /FontType get 3 eq { fCol } { sCol } ifelse
    xycp currentpoint stroke moveto
  } if
  pdfTextRender 4 and 0 ne {
    4 2 roll moveto xycp
    /pdfTextClipPath [ pdfTextClipPath aload pop
      {/moveto cvx}
      {/lineto cvx}
      {/curveto cvx}
      {/closepath cvx}
    pathforall ] def
    currentpoint newpath moveto
  } {
    pop pop pop pop
  } ifelse
  0 pdfTextRise neg pdfTextMat dtransform rmoveto
} def
/TJm { 0.001 mul pdfFontSize mul pdfHorizScaling mul neg 0
       pdfTextMat dtransform rmoveto } def
/TJmV { 0.001 mul pdfFontSize mul neg 0 exch
        pdfTextMat dtransform rmoveto } def
/Tclip { pdfTextClipPath cvx exec clip newpath
         /pdfTextClipPath [] def } def
/Tclip* { pdfTextClipPath cvx exec eoclip newpath
         /pdfTextClipPath [] def } def
% Level 2/3 image operators
/pdfImBuf 100 string def
/pdfImStr {
  2 copy exch length lt {
    2 copy get exch 1 add exch
  } {
    ()
  } ifelse
} def
/skipEOD {
  { currentfile pdfImBuf readline
    not { pop exit } if
    (%-EOD-) eq { exit } if } loop
} def
/pdfIm { image skipEOD } def
/pdfImM { fCol imagemask skipEOD } def
/pr { 2 index 2 index 3 2 roll putinterval 4 add } def
/pdfImClip {
  gsave
  0 2 4 index length 1 sub {
    dup 4 index exch 2 copy
    get 5 index div put
    1 add 3 index exch 2 copy
    get 3 index div put
  } for
  pop pop rectclip
} def
/pdfImClipEnd { grestore } def
% shading operators
/colordelta {
  false 0 1 3 index length 1 sub {
    dup 4 index exch get 3 index 3 2 roll get sub abs 0.004 gt {
      pop true
    } if
  } for
  exch pop exch pop
} def
/funcCol { func n array astore } def
/funcSH {
  dup 0 eq {
    true
  } {
    dup 6 eq {
      false
    } {
      4 index 4 index funcCol dup
      6 index 4 index funcCol dup
      3 1 roll colordelta 3 1 roll
      5 index 5 index funcCol dup
      3 1 roll colordelta 3 1 roll
      6 index 8 index funcCol dup
      3 1 roll colordelta 3 1 roll
      colordelta or or or
    } ifelse
  } ifelse
  {
    1 add
    4 index 3 index add 0.5 mul exch 4 index 3 index add 0.5 mul exch
    6 index 6 index 4 index 4 index 4 index funcSH
    2 index 6 index 6 index 4 index 4 index funcSH
    6 index 2 index 4 index 6 index 4 index funcSH
    5 3 roll 3 2 roll funcSH pop pop
  } {
    pop 3 index 2 index add 0.5 mul 3 index  2 index add 0.5 mul
    funcCol sc
    dup 4 index exch mat transform m
    3 index 3 index mat transform l
    1 index 3 index mat transform l
    mat transform l pop pop h f*
  } ifelse
} def
/axialCol {
  dup 0 lt {
    pop t0
  } {
    dup 1 gt {
      pop t1
    } {
      dt mul t0 add
    } ifelse
  } ifelse
  func n array astore
} def
/axialSH {
  dup 0 eq {
    true
  } {
    dup 8 eq {
      false
    } {
      2 index axialCol 2 index axialCol colordelta
    } ifelse
  } ifelse
  {
    1 add 3 1 roll 2 copy add 0.5 mul
    dup 4 3 roll exch 4 index axialSH
    exch 3 2 roll axialSH
  } {
    pop 2 copy add 0.5 mul
    axialCol sc
    exch dup dx mul x0 add exch dy mul y0 add
    3 2 roll dup dx mul x0 add exch dy mul y0 add
    dx abs dy abs ge {
      2 copy yMin sub dy mul dx div add yMin m
      yMax sub dy mul dx div add yMax l
      2 copy yMax sub dy mul dx div add yMax l
      yMin sub dy mul dx div add yMin l
      h f*
    } {
      exch 2 copy xMin sub dx mul dy div add xMin exch m
      xMax sub dx mul dy div add xMax exch l
      exch 2 copy xMax sub dx mul dy div add xMax exch l
      xMin sub dx mul dy div add xMin exch l
      h f*
    } ifelse
  } ifelse
} def
/radialCol {
  dup t0 lt {
    pop t0
  } {
    dup t1 gt {
      pop t1
    } if
  } ifelse
  func n array astore
} def
/radialSH {
  dup 0 eq {
    true
  } {
    dup 8 eq {
      false
    } {
      2 index dt mul t0 add radialCol
      2 index dt mul t0 add radialCol colordelta
    } ifelse
  } ifelse
  {
    1 add 3 1 roll 2 copy add 0.5 mul
    dup 4 3 roll exch 4 index radialSH
    exch 3 2 roll radialSH
  } {
    pop 2 copy add 0.5 mul dt mul t0 add
    radialCol sc
    encl {
      exch dup dx mul x0 add exch dup dy mul y0 add exch dr mul r0 add
      0 360 arc h
      dup dx mul x0 add exch dup dy mul y0 add exch dr mul r0 add
      360 0 arcn h f
    } {
      2 copy
      dup dx mul x0 add exch dup dy mul y0 add exch dr mul r0 add
      a1 a2 arcn
      dup dx mul x0 add exch dup dy mul y0 add exch dr mul r0 add
      a2 a1 arcn h
      dup dx mul x0 add exch dup dy mul y0 add exch dr mul r0 add
      a1 a2 arc
      dup dx mul x0 add exch dup dy mul y0 add exch dr mul r0 add
      a2 a1 arc h f
    } ifelse
  } ifelse
} def
end
%%EndResource
%%EndProlog
%%BeginSetup
xpdf begin
false pdfSetup
%%EndSetup
%%Page: 1 1
%%PageMedia: 720x540
%%PageBoundingBox: 0 0 720 540
%%BeginPageSetup
%%PageOrientation: Portrait
720 540 pdfSetupPaper
pdfStartPage
0 0 720 540 re W
%%EndPageSetup
[] 0 d
1 i
0 j
0 J
10 M
1 w
/DeviceGray {} cs
[0] sc
/DeviceGray {} CS
[0] SC
false op
false OP
{} settransfer
q
0.1 w
q
0 0 720 540 re
W*
/DeviceRGB {} CS
[0 0 0] SC
q
2.8866 w
0 J
1 j
158.3 337.8 m
504 337.8 l
S
Q
/DeviceRGB {} cs
[0 0 0] sc
144 337.8 m
159 332.8 l
159 342.8 l
144 337.8 l
h
f*
518.4 337.8 m
503.3 342.8 l
503.3 332.8 l
518.4 337.8 l
h
f*
/DeviceRGB {} cs
[1 0 0] sc
199.2 342.7 m
203.3 342.7 206.4 339.9 206.4 336.3 c
206.4 332.6 203.3 329.8 199.2 329.8 c
195.1 329.8 192 332.6 192 336.3 c
192 339.9 195.1 342.7 199.2 342.7 c
h
f*
/DeviceRGB {} CS
[1 0.2 0.2] SC
q
0 w
0 J
1 j
199.2 342.7 m
203.3 342.7 206.4 339.9 206.4 336.3 c
206.4 332.6 203.3 329.8 199.2 329.8 c
195.1 329.8 192 332.6 192 336.3 c
192 339.9 195.1 342.7 199.2 342.7 c
h
S
Q
/DeviceRGB {} cs
[1 0 0] sc
267.1 342.7 m
271.2 342.7 274.3 339.8 274.3 335.9 c
274.3 332 271.2 329 267.1 329 c
263 329 259.9 332 259.9 335.9 c
259.9 339.8 263 342.7 267.1 342.7 c
h
f*
/DeviceRGB {} CS
[1 0.2 0.2] SC
q
0 w
0 J
1 j
267.1 342.7 m
271.2 342.7 274.3 339.8 274.3 335.9 c
274.3 332 271.2 329 267.1 329 c
263 329 259.9 332 259.9 335.9 c
259.9 339.8 263 342.7 267.1 342.7 c
h
S
Q
/DeviceRGB {} cs
[1 0 0] sc
306.8 342.7 m
310.9 342.7 314 339.8 314 335.9 c
314 332 310.9 329 306.8 329 c
302.7 329 299.6 332 299.6 335.9 c
299.6 339.8 302.7 342.7 306.8 342.7 c
h
f*
/DeviceRGB {} CS
[1 0.2 0.2] SC
q
0 w
0 J
1 j
306.8 342.7 m
310.9 342.7 314 339.8 314 335.9 c
314 332 310.9 329 306.8 329 c
302.7 329 299.6 332 299.6 335.9 c
299.6 339.8 302.7 342.7 306.8 342.7 c
h
S
Q
/DeviceRGB {} cs
[1 0 0] sc
232.3 342.7 m
236.4 342.7 239.5 339.8 239.5 335.9 c
239.5 332 236.4 329 232.3 329 c
228.2 329 225.1 332 225.1 335.9 c
225.1 339.8 228.2 342.7 232.3 342.7 c
h
f*
/DeviceRGB {} CS
[1 0.2 0.2] SC
q
0 w
0 J
1 j
232.3 342.7 m
236.4 342.7 239.5 339.8 239.5 335.9 c
239.5 332 236.4 329 232.3 329 c
228.2 329 225.1 332 225.1 335.9 c
225.1 339.8 228.2 342.7 232.3 342.7 c
h
S
Q
/DeviceRGB {} cs
[0 0 1] sc
382.9 342.7 m
387 342.7 390.1 339.8 390.1 335.9 c
390.1 332 387 329 382.9 329 c
378.9 329 375.7 332 375.7 335.9 c
375.7 339.8 378.9 342.7 382.9 342.7 c
h
f*
/DeviceRGB {} CS
[0.2 0.2 1] SC
q
0 w
0 J
1 j
382.9 342.7 m
387 342.7 390.1 339.8 390.1 335.9 c
390.1 332 387 329 382.9 329 c
378.9 329 375.7 332 375.7 335.9 c
375.7 339.8 378.9 342.7 382.9 342.7 c
h
S
Q
/DeviceRGB {} cs
[0 0 1] sc
457.4 342.7 m
461.5 342.7 464.6 339.8 464.6 335.9 c
464.6 332 461.5 329 457.4 329 c
453.3 329 450.2 332 450.2 335.9 c
450.2 339.8 453.3 342.7 457.4 342.7 c
h
f*
/DeviceRGB {} CS
[0.2 0.2 1] SC
q
0 w
0 J
1 j
457.4 342.7 m
461.5 342.7 464.6 339.8 464.6 335.9 c
464.6 332 461.5 329 457.4 329 c
453.3 329 450.2 332 450.2 335.9 c
450.2 339.8 453.3 342.7 457.4 342.7 c
h
S
Q
/DeviceRGB {} cs
[0 0 1] sc
422.6 342.7 m
426.7 342.7 429.8 339.9 429.8 336.3 c
429.8 332.6 426.7 329.8 422.6 329.8 c
418.6 329.8 415.4 332.6 415.4 336.3 c
415.4 339.9 418.6 342.7 422.6 342.7 c
h
f*
/DeviceRGB {} CS
[0 0 1] SC
q
0 w
0 J
1 j
422.6 342.7 m
426.7 342.7 429.8 339.9 429.8 336.3 c
429.8 332.6 426.7 329.8 422.6 329.8 c
418.6 329.8 415.4 332.6 415.4 336.3 c
415.4 339.9 418.6 342.7 422.6 342.7 c
h
S
Q
/DeviceRGB {} cs
[0 0 0] sc
344.9 342.7 m
348.9 342.7 352.1 339.8 352.1 335.9 c
352.1 332 348.9 329 344.9 329 c
340.8 329 337.7 332 337.7 335.9 c
337.7 339.8 340.8 342.7 344.9 342.7 c
h
f*
/DeviceRGB {} CS
[0 0 0] SC
q
0 w
0 J
1 j
344.9 342.7 m
348.9 342.7 352.1 339.8 352.1 335.9 c
352.1 332 348.9 329 344.9 329 c
340.8 329 337.7 332 337.7 335.9 c
337.7 339.8 340.8 342.7 344.9 342.7 c
h
S
Q
Q
Q
showpage
%%PageTrailer
pdfEndPage
%%Trailer
end
%%DocumentSuppliedResources:
%%Trailer
cleartomark
countdictstack
exch sub { end } repeat
restore
%%EOF
